File LogicAnalyzer/CarrierFrequency_v1.vcd
$version Generated by Wokwi.com $end
$date Thu, 31 Aug 2023 13:01:07 GMT $end
$timescale 1ns $end
$scope module logic $end
$var wire 1 ! D0 $end
$upscope $end
$enddefinitions $end
#0
0!
#23937
1!
#37062
0!
#50187
1!
#63312
0!
#76437
1!
#89562
0!
#102687
1!
#115812
0!
#128937
1!
#142062
0!
#155187
1!
#168312
0!
#181437
1!
#194562
0!
#207687
1!
#220812
0!
#233937
1!
#247062
0!
#260187
1!
#273312
0!
#286437
1!
#299562
0!
#312687
1!
#325812
0!
#338937
1!
#352062
0!
#365187
1!
#378312
0!
#391437
1!
#404562
0!
#417687
1!
#430812
0!
#443937
1!
#457062
0!
#470187
1!
#483312
0!
#496437
1!
#509562
0!
#522687
1!
#535812
0!
#548937
1!
#562062
0!
#575187
1!
#588312
0!
#601437
1!
#614562
0!
#627687
1!
#640812
0!
#653937
1!
#667062
0!
#680187
1!
#693312
0!
#706437
1!
#719562
0!
#732687
1!
#745812
0!
#758937
1!
#772062
0!
#785187
1!
#798312
0!
#811437
1!
#824562
0!
#837687
1!
#850812
0!
#863937
1!
#877062
0!
#890187
1!
#903312
0!
#916437
1!
#929562
0!
#942687
1!
#955812
0!
#968937
1!
#982062
0!
#995187
1!
#1008312
0!
#1021437
1!
#1036812
0!
#1047687
1!
#1060812
0!
#1073937
1!
#1087062
0!
#1100187
1!
#1113312
0!
#1126437
1!
#1139562
0!
#1152687
1!
#1165812
0!
#1178937
1!
#1192062
0!
#1205187
1!
#1218312
0!
#1231437
1!
#1244562
0!
#1257687
1!
#1270812
0!
#1283937
1!
#1297062
0!
#1310187
1!
#1323312
0!
#1336437
1!
#1349562
0!
#1362687
1!
#1375812
0!
#1388937
1!
#1402062
0!
#1415187
1!
#1428312
0!
#1441437
1!
#1454562
0!
#1467687
1!
#1480812
0!
#1493937
1!
#1507062
0!
#1520187
1!
#1533312
0!
#1546437
1!
#1559562
0!
#1572687
1!
#1585812
0!
#1598937
1!
#1612062
0!
#1625187
1!
#1638312
0!
#1651437
1!
#1664562
0!
#1677687
1!
#1690812
0!
#1703937
1!
#1717062
0!
#1730187
1!
#1743312
0!
#1756437
1!
#1769562
0!
#1782687
1!
#1795812
0!
#1808937
1!
#1822062
0!
#1835187
1!
#1848312
0!
#1861437
1!
#1874562
0!
#1887687
1!
#1900812
0!
#1913937
1!
#1927062
0!
#1940187
1!
#1953312
0!
#1966437
1!
#1979562
0!
#1992687
1!
#2005812
0!
#2018937
1!
#2032062
0!
#2045187
1!
#2060812
0!
#2071437
1!
#2084562
0!
#2097687
1!
#2110812
0!
#2123937
1!
#2137062
0!
#2150187
1!
#2163312
0!
#2176437
1!
#2189562
0!
#2202687
1!
#2215812
0!
#2228937
1!
#2242062
0!
#2255187
1!
#2268312
0!
#2281437
1!
#2294562
0!
#2307687
1!
#2320812
0!
#2333937
1!
#2347062
0!
#2360187
1!
#2373312
0!
#2386437
1!
#2399562
0!
#2412687
1!
#2425812
0!
#2438937
1!
#2452062
0!
#2465187
1!
#2478312
0!
#2491437
1!
#2504562
0!
#2517687
1!
#2530812
0!
#2543937
1!
#2557062
0!
#2570187
1!
#2583312
0!
#2596437
1!
#2609562
0!
#2622687
1!
#2635812
0!
#2648937
1!
#2662062
0!
#2675187
1!
#2688312
0!
#2701437
1!
#2714562
0!
#2727687
1!
#2740812
0!
#2753937
1!
#2767062
0!
#2780187
1!
#2793312
0!
#2806437
1!
#2819562
0!
#2832687
1!
#2845812
0!
#2858937
1!
#2872062
0!
#2885187
1!
#2898312
0!
#2911437
1!
#2924562
0!
#2937687
1!
#2950812
0!
#2963937
1!
#2977062
0!
#2990187
1!
#3003312
0!
#3016437
1!
#3029562
0!
#3042687
1!
#3055812
0!
#3068937
1!
#3084812
0!
#3095187
1!
#3108312
0!
#3121437
1!
#3134562
0!
#3147687
1!
#3160812
0!
#3173937
1!
#3187062
0!
#3200187
1!
#3213312
0!
#3226437
1!
#3239562
0!
#3252687
1!
#3265812
0!
#3278937
1!
#3292062
0!
#3305187
1!
#3318312
0!
#3331437
1!
#3344562
0!
#3357687
1!
#3370812
0!
#3383937
1!
#3397062
0!
#3410187
1!
#3423312
0!
#3436437
1!
#3449562
0!
#3462687
1!
#3475812
0!
#3488937
1!
#3502062
0!
#3515187
1!
#3528312
0!
#3541437
1!
#3554562
0!
#3567687
1!
#3580812
0!
#3593937
1!
#3607062
0!
#3620187
1!
#3633312
0!
#3646437
1!
#3659562
0!
#3672687
1!
#3685812
0!
#3698937
1!
#3712062
0!
#3725187
1!
#3738312
0!
#3751437
1!
#3764562
0!
#3777687
1!
#3790812
0!
#3803937
1!
#3817062
0!
#3830187
1!
#3843312
0!
#3856437
1!
#3869562
0!
#3882687
1!
#3895812
0!
#3908937
1!
#3922062
0!
#3935187
1!
#3948312
0!
#3961437
1!
#3974562
0!
#3987687
1!
#4000812
0!
#4013937
1!
#4027062
0!
#4040187
1!
#4053312
0!
#4066437
1!
#4079562
0!
#4092687
1!
#4108812
0!
#4118937
1!
#4132062
0!
#4145187
1!
#4158312
0!
#4171437
1!
#4184562
0!
#4197687
1!
#4210812
0!
#4223937
1!
#4237062
0!
#4250187
1!
#4263312
0!
#4276437
1!
#4289562
0!
#4302687
1!
#4315812
0!
#4328937
1!
#4342062
0!
#4355187
1!
#4368312
0!
#4381437
1!
#4394562
0!
#4407687
1!
#4420812
0!
#4433937
1!
#4447062
0!
#4460187
1!
#4473312
0!
#4486437
1!
#4499562
0!
#4512687
1!
#4525812
0!
#4538937
1!
#4552062
0!
#4565187
1!
#4578312
0!
#4591437
1!
#4604562
0!
#4617687
1!
#4630812
0!
#4643937
1!
#4657062
0!
#4670187
1!
#4683312
0!
#4696437
1!
#4709562
0!
#4722687
1!
#4735812
0!
#4748937
1!
#4762062
0!
#4775187
1!
#4788312
0!
#4801437
1!
#4814562
0!
#4827687
1!
#4840812
0!
#4853937
1!
#4867062
0!
#4880187
1!
#4893312
0!
#4906437
1!
#4919562
0!
#4932687
1!
#4945812
0!
#4958937
1!
#4972062
0!
#4985187
1!
#4998312
0!
#5011437
1!
#5024562
0!
#5037687
1!
#5050812
0!
#5063937
1!
#5077062
0!
#5090187
1!
#5103312
0!
#5116437
1!
#5132812
0!
#5142687
1!
#5155812
0!
#5168937
1!
#5182062
0!
#5195187
1!
#5208312
0!
#5221437
1!
#5234562
0!
#5247687
1!
#5260812
0!
#5273937
1!
#5287062
0!
#5300187
1!
#5313312
0!
#5326437
1!
#5339562
0!
#5352687
1!
#5365812
0!
#5378937
1!
#5392062
0!
#5405187
1!
#5418312
0!
#5431437
1!
#5444562
0!
#5457687
1!
#5470812
0!
#5483937
1!
#5497062
0!
#5510187
1!
#5523312
0!
#5536437
1!
#5549562
0!
#5562687
1!
#5575812
0!
#5588937
1!
#5602062
0!
#5615187
1!
#5628312
0!
#5641437
1!
#5654562
0!
#5667687
1!
#5680812
0!
#5693937
1!
#5707062
0!
#5720187
1!
#5733312
0!
#5746437
1!
#5759562
0!
#5772687
1!
#5785812
0!
#5798937
1!
#5812062
0!
#5825187
1!
#5838312
0!
#5851437
1!
#5864562
0!
#5877687
1!
#5890812
0!
#5903937
1!
#5917062
0!
#5930187
1!
#5943312
0!
#5956437
1!
#5969562
0!
#5982687
1!
#5995812
0!
#6008937
1!
#6022062
0!
#6035187
1!
#6048312
0!
#6061437
1!
#6074562
0!
#6087687
1!
#6100812
0!
#6113937
1!
#6127062
0!
#6140187
1!
#6156812
0!
#6166437
1!
#6179562
0!
#6192687
1!
#6205812
0!
#6218937
1!
#6232062
0!
#6245187
1!
#6258312
0!
#6271437
1!
#6284562
0!
#6297687
1!
#6310812
0!
#6323937
1!
#6337062
0!
#6350187
1!
#6363312
0!
#6376437
1!
#6389562
0!
#6402687
1!
#6415812
0!
#6428937
1!
#6442062
0!
#6455187
1!
#6468312
0!
#6481437
1!
#6494562
0!
#6507687
1!
#6520812
0!
#6533937
1!
#6547062
0!
#6560187
1!
#6573312
0!
#6586437
1!
#6599562
0!
#6612687
1!
#6625812
0!
#6638937
1!
#6652062
0!
#6665187
1!
#6678312
0!
#6691437
1!
#6704562
0!
#6717687
1!
#6730812
0!
#6743937
1!
#6757062
0!
#6770187
1!
#6783312
0!
#6796437
1!
#6809562
0!
#6822687
1!
#6835812
0!
#6848937
1!
#6862062
0!
#6875187
1!
#6888312
0!
#6901437
1!
#6914562
0!
#6927687
1!
#6940812
0!
#6953937
1!
#6967062
0!
#6980187
1!
#6993312
0!
#7006437
1!
#7019562
0!
#7032687
1!
#7045812
0!
#7058937
1!
#7072062
0!
#7085187
1!
#7098312
0!
#7111437
1!
#7124562
0!
#7137687
1!
#7150812
0!
#7163937
1!
#7180812
0!
#7190187
1!
#7203312
0!
#7216437
1!
#7229562
0!
#7242687
1!
#7255812
0!
#7268937
1!
#7282062
0!
#7295187
1!
#7308312
0!
#7321437
1!
#7334562
0!
#7347687
1!
#7360812
0!
#7373937
1!
#7387062
0!
#7400187
1!
#7413312
0!
#7426437
1!
#7439562
0!
#7452687
1!
#7465812
0!
#7478937
1!
#7492062
0!
#7505187
1!
#7518312
0!
#7531437
1!
#7544562
0!
#7557687
1!
#7570812
0!
#7583937
1!
#7597062
0!
#7610187
1!
#7623312
0!
#7636437
1!
#7649562
0!
#7662687
1!
#7675812
0!
#7688937
1!
#7702062
0!
#7715187
1!
#7728312
0!
#7741437
1!
#7754562
0!
#7767687
1!
#7780812
0!
#7793937
1!
#7807062
0!
#7820187
1!
#7833312
0!
#7846437
1!
#7859562
0!
#7872687
1!
#7885812
0!
#7898937
1!
#7912062
0!
#7925187
1!
#7938312
0!
#7951437
1!
#7964562
0!
#7977687
1!
#7990812
0!
#8003937
1!
#8017062
0!
#8030187
1!
#8043312
0!
#8056437
1!
#8069562
0!
#8082687
1!
#8095812
0!
#8108937
1!
#8122062
0!
#8135187
1!
#8148312
0!
#8161437
1!
#8174562
0!
#8187687
1!
#8204812
0!
#8213937
1!
#8227062
0!
#8240187
1!
#8253312
0!
#8266437
1!
#8279562
0!
#8292687
1!
#8305812
0!
#8318937
1!
#8332062
0!
#8345187
1!
#8358312
0!
#8371437
1!
#8384562
0!
#8397687
1!
#8410812
0!
#8423937
1!
#8437062
0!
#8450187
1!
#8463312
0!
#8476437
1!
#8489562
0!
#8502687
1!
#8515812
0!
#8528937
1!
#8542062
0!
#8555187
1!
#8568312
0!
#8581437
1!
#8594562
0!
#8607687
1!
#8620812
0!
#8633937
1!
#8647062
0!
#8660187
1!
#8673312
0!
#8686437
1!
#8699562
0!
#8712687
1!
#8725812
0!
#8738937
1!
#8752062
0!
#8765187
1!
#8778312
0!
#8791437
1!
#8804562
0!
#8817687
1!
#8830812
0!
#8843937
1!
#8857062
0!
#8870187
1!
#8883312
0!
#8896437
1!
#8909562
0!
#8922687
1!
#8935812
0!
#8948937
1!
#8962062
0!
#8975187
1!
#8988312
0!
#9001437
1!
#9014562
0!
#9027687
1!
#9040812
0!
#9053937
1!
#9067062
0!
#9080187
1!
#9093312
0!
#9106437
1!
#9119562
0!
#9132687
1!
#9145812
0!
#9158937
1!
#9172062
0!
#9185187
1!
#9198312
0!
#9211437
1!
#9228812
0!
#9237687
1!
#9250812
0!
#9263937
1!
#9277062
0!
#9290187
1!
#9303312
0!
#9316437
1!
#9329562
0!
#9342687
1!
#9355812
0!
#9368937
1!
#9382062
0!
#9395187
1!
#9408312
0!
#9421437
1!
#9434562
0!
#9447687
1!
#9460812
0!
#9473937
1!
#9487062
0!
#9500187
1!
#9513312
0!
#9526437
1!
#9539562
0!
#9552687
1!
#9565812
0!
#9578937
1!
#9592062
0!
#9605187
1!
#9618312
0!
#9631437
1!
#9644562
0!
#9657687
1!
#9670812
0!
#9683937
1!
#9697062
0!
#9710187
1!
#9723312
0!
#9736437
1!
#9749562
0!
#9762687
1!
#9775812
0!
#9788937
1!
#9802062
0!
#9815187
1!
#9828312
0!
#9841437
1!
#9854562
0!
#9867687
1!
#9880812
0!
#9893937
1!
#9907062
0!
#9920187
1!
#9933312
0!
#9946437
1!
#9959562
0!
#9972687
1!
#9985812
0!
#9998937
1!
#10012062
0!
#10025187
1!
#10038312
0!
#10051437
1!
#10064562
0!
#10077687
1!
#10090812
0!
#10103937
1!
#10117062
0!
#10130187
1!
#10143312
0!
#10156437
1!
#10169562
0!
#10182687
1!
#10195812
0!
#10208937
1!
#10222062
0!
#10235187
1!
#10252812
0!
#10261437
1!
#10274562
0!
#10287687
1!
#10300812
0!
#10313937
1!
#10327062
0!
#10340187
1!
#10353312
0!
#10366437
1!
#10379562
0!
#10392687
1!
#10405812
0!
#10418937
1!
#10432062
0!
#10445187
1!
#10458312
0!
#10471437
1!
#10484562
0!
#10497687
1!
#10510812
0!
#10523937
1!
#10537062
0!
#10550187
1!
#10563312
0!
#10576437
1!
#10589562
0!
#10602687
1!
#10615812
0!
#10628937
1!
#10642062
0!
#10655187
1!
#10668312
0!
#10681437
1!
#10694562
0!
#10707687
1!
#10720812
0!
#10733937
1!
#10747062
0!
#10760187
1!
#10773312
0!
#10786437
1!
#10799562
0!
#10812687
1!
#10825812
0!
#10838937
1!
#10852062
0!
#10865187
1!
#10878312
0!
#10891437
1!
#10904562
0!
#10917687
1!
#10930812
0!
#10943937
1!
#10957062
0!
#10970187
1!
#10983312
0!
#10996437
1!
#11009562
0!
#11022687
1!
#11035812
0!
#11048937
1!
#11062062
0!
#11075187
1!
#11088312
0!
#11101437
1!
#11114562
0!
#11127687
1!
#11140812
0!
#11153937
1!
#11167062
0!
#11180187
1!
#11193312
0!
#11206437
1!
#11219562
0!
#11232687
1!
#11245812
0!
#11258937
1!
#11276812
0!
#11285187
1!
#11298312
0!
#11311437
1!
#11324562
0!
#11337687
1!
#11350812
0!
#11363937
1!
#11377062
0!
#11390187
1!
#11403312
0!
#11416437
1!
#11429562
0!
#11442687
1!
#11455812
0!
#11468937
1!
#11482062
0!
#11495187
1!
#11508312
0!
#11521437
1!
#11534562
0!
#11547687
1!
#11560812
0!
#11573937
1!
#11587062
0!
#11600187
1!
#11613312
0!
#11626437
1!
#11639562
0!
#11652687
1!
#11665812
0!
#11678937
1!
#11692062
0!
#11705187
1!
#11718312
0!
#11731437
1!
#11744562
0!
#11757687
1!
#11770812
0!
#11783937
1!
#11797062
0!
#11810187
1!
#11823312
0!
#11836437
1!
#11849562
0!
#11862687
1!
#11875812
0!
#11888937
1!
#11902062
0!
#11915187
1!
#11928312
0!
#11941437
1!
#11954562
0!
#11967687
1!
#11980812
0!
#11993937
1!
#12007062
0!
#12020187
1!
#12033312
0!
#12046437
1!
#12059562
0!
#12072687
1!
#12085812
0!
#12098937
1!
#12112062
0!
#12125187
1!
#12138312
0!
#12151437
1!
#12164562
0!
#12177687
1!
#12190812
0!
#12203937
1!
#12217062
0!
#12230187
1!
#12243312
0!
#12256437
1!
#12269562
0!
#12282687
1!
#12300812
0!
#12308937
1!
#12322062
0!
#12335187
1!
#12348312
0!
#12361437
1!
#12374562
0!
#12387687
1!
#12400812
0!
#12413937
1!
#12427062
0!
#12440187
1!
#12453312
0!
#12466437
1!
#12479562
0!
#12492687
1!
#12505812
0!
#12518937
1!
#12532062
0!
#12545187
1!
#12558312
0!
#12571437
1!
#12584562
0!
#12597687
1!
#12610812
0!
#12623937
1!
#12637062
0!
#12650187
1!
#12663312
0!
#12676437
1!
#12689562
0!
#12702687
1!
#12715812
0!
#12728937
1!
#12742062
0!
#12755187
1!
#12768312
0!
#12781437
1!
#12794562
0!
#12807687
1!
#12820812
0!
#12833937
1!
#12847062
0!
#12860187
1!
#12873312
0!
#12886437
1!
#12899562
0!
#12912687
1!
#12925812
0!
#12938937
1!
#12952062
0!
#12965187
1!
#12978312
0!
#12991437
1!
#13004562
0!
#13017687
1!
#13030812
0!
#13043937
1!
#13057062
0!
#13070187
1!
#13083312
0!
#13096437
1!
#13109562
0!
#13122687
1!
#13135812
0!
#13148937
1!
#13162062
0!
#13175187
1!
#13188312
0!
#13201437
1!
#13214562
0!
#13227687
1!
#13240812
0!
#13253937
1!
#13267062
0!
#13280187
1!
#13293312
0!
#13306437
1!
#13324812
0!
#13332687
1!
#13345812
0!
#13358937
1!
#13372062
0!
#13385187
1!
#13398312
0!
#13411437
1!
#13424562
0!
#13437687
1!
#13450812
0!
#13463937
1!
#13477062
0!
#13490187
1!
#13503312
0!
#13516437
1!
#13529562
0!
#13542687
1!
#13555812
0!
#13568937
1!
#13582062
0!
#13595187
1!
#13608312
0!
#13621437
1!
#13634562
0!
#13647687
1!
#13660812
0!
#13673937
1!
#13687062
0!
#13700187
1!
#13713312
0!
#13726437
1!
#13739562
0!
#13752687
1!
#13765812
0!
#13778937
1!
#13792062
0!
#13805187
1!
#13818312
0!
#13831437
1!
#13844562
0!
#13857687
1!
#13870812
0!
#13883937
1!
#13897062
0!
#13910187
1!
#13923312
0!
#13936437
1!
#13949562
0!
#13962687
1!
#13975812
0!
#13988937
1!
#14002062
0!
#14015187
1!
#14028312
0!
#14041437
1!
#14054562
0!
#14067687
1!
#14080812
0!
#14093937
1!
#14107062
0!
#14120187
1!
#14133312
0!
#14146437
1!
#14159562
0!
#14172687
1!
#14185812
0!
#14198937
1!
#14212062
0!
#14225187
1!
#14238312
0!
#14251437
1!
#14264562
0!
#14277687
1!
#14290812
0!
#14303937
1!
#14317062
0!
#14330187
1!
#14348812
0!
#14356437
1!
#14369562
0!
#14382687
1!
#14395812
0!
#14408937
1!
#14422062
0!
#14435187
1!
#14448312
0!
#14461437
1!
#14474562
0!
#14487687
1!
#14500812
0!
#14513937
1!
#14527062
0!
#14540187
1!
#14553312
0!
#14566437
1!
#14579562
0!
#14592687
1!
#14605812
0!
#14618937
1!
#14632062
0!
#14645187
1!
#14658312
0!
#14671437
1!
#14684562
0!
#14697687
1!
#14710812
0!
#14723937
1!
#14737062
0!
#14750187
1!
#14763312
0!
#14776437
1!
#14789562
0!
#14802687
1!
#14815812
0!
#14828937
1!
#14842062
0!
#14855187
1!
#14868312
0!
#14881437
1!
#14894562
0!
#14907687
1!
#14920812
0!
#14933937
1!
#14947062
0!
#14960187
1!
#14973312
0!
#14986437
1!
#14999562
0!
#15012687
1!
#15025812
0!
#15038937
1!
#15052062
0!
#15065187
1!
#15078312
0!
#15091437
1!
#15104562
0!
#15117687
1!
#15130812
0!
#15143937
1!
#15157062
0!
#15170187
1!
#15183312
0!
#15196437
1!
#15209562
0!
#15222687
1!
#15235812
0!
#15248937
1!
#15262062
0!
#15275187
1!
#15288312
0!
#15301437
1!
#15314562
0!
#15327687
1!
#15340812
0!
#15353937
1!
#15372812
0!
#15380187
1!
#15393312
0!
#15406437
1!
#15419562
0!
#15432687
1!
#15445812
0!
#15458937
1!
#15472062
0!
#15485187
1!
#15498312
0!
#15511437
1!
#15524562
0!
#15537687
1!
#15550812
0!
#15563937
1!
#15577062
0!
#15590187
1!
#15603312
0!
#15616437
1!
#15629562
0!
#15642687
1!
#15655812
0!
#15668937
1!
#15682062
0!
#15695187
1!
#15708312
0!
#15721437
1!
#15734562
0!
#15747687
1!
#15760812
0!
#15773937
1!
#15787062
0!
#15800187
1!
#15813312
0!
#15826437
1!
#15839562
0!
#15852687
1!
#15865812
0!
#15878937
1!
#15892062
0!
#15905187
1!
#15918312
0!
#15931437
1!
#15944562
0!
#15957687
1!
#15970812
0!
#15983937
1!
#15997062
0!
#16010187
1!
#16023312
0!
#16036437
1!
#16049562
0!
#16062687
1!
#16075812
0!
#16088937
1!
#16102062
0!
#16115187
1!
#16128312
0!
#16141437
1!
#16154562
0!
#16167687
1!
#16180812
0!
#16193937
1!
#16207062
0!
#16220187
1!
#16233312
0!
#16246437
1!
#16259562
0!
#16272687
1!
#16285812
0!
#16298937
1!
#16312062
0!
#16325187
1!
#16338312
0!
#16351437
1!
#16364562
0!
#16377687
1!
#16390812
0!
#16403937
1!
#16417062
0!
#16430187
1!
#16443312
0!
#16456437
1!
#16469562
0!
#16482687
1!
#16495812
0!
#16508937
1!
#16522062
0!
#16535187
1!
#16548312
0!
#16561437
1!
#16574562
0!
#16587687
1!
#16600812
0!
#16613937
1!
#16627062
0!
#16640187
1!
#16653312
0!
#16666437
1!
#16679562
0!
#16692687
1!
#16705812
0!
#16718937
1!
#16732062
0!
#16745187
1!
#16758312
0!
#16771437
1!
#16784562
0!
#16797687
1!
#16810812
0!
#16823937
1!
#16837062
0!
#16850187
1!
#16863312
0!
#16876437
1!
#16889562
0!
#16902687
1!
#16915812
0!
#16928937
1!
#16942062
0!
#16955187
1!
#16968312
0!
#16981437
1!
#16994562
0!
#17007687
1!
#17020812
0!
#17033937
1!
#17047062
0!
#17060187
1!
#17073312
0!
#17086437
1!
#17099562
0!
#17112687
1!
#17125812
0!
#17138937
1!
#17152062
0!
#17165187
1!
#17178312
0!
#17191437
1!
#17204562
0!
#17217687
1!
#17230812
0!
#17243937
1!
#17257062
0!
#17270187
1!
#17283312
0!
#17296437
1!
#17309562
0!
#17322687
1!
#17335812
0!
#17348937
1!
#17362062
0!
#17375187
1!
#17388312
0!
#17401437
1!
#17414562
0!
#17427687
1!
#17440812
0!
#17453937
1!
#17467062
0!
#17480187
1!
#17493312
0!
#17506437
1!
#17519562
0!
#17532687
1!
#17545812
0!
#17558937
1!
#17572062
0!
#17585187
1!
#17598312
0!
#17611437
1!
#17624562
0!
#17637687
1!
#17650812
0!
#17663937
1!
#17677062
0!
#17690187
1!
#17703312
0!
#17716437
1!
#17729562
0!
#17742687
1!
#17755812
0!
#17768937
1!
#17782062
0!
#17795187
1!
#17808312
0!
#17821437
1!
#17834562
0!
#17847687
1!
#17860812
0!
#17873937
1!
#17887062
0!
#17900187
1!
#17913312
0!
#17926437
1!
#17939562
0!
#17952687
1!
#17965812
0!
#17978937
1!
#17992062
0!
#18005187
1!
#18018312
0!
#18031437
1!
#18044562
0!
#18057687
1!
#18070812
0!
#18083937
1!
#18097062
0!
#18110187
1!
#18123312
0!
#18136437
1!
#18149562
0!
#18162687
1!
#18175812
0!
#18188937
1!
#18202062
0!
#18215187
1!
#18228312
0!
#18241437
1!
#18254562
0!
#18267687
1!
#18280812
0!
#18293937
1!
#18307062
0!
#18320187
1!
#18333312
0!
#18346437
1!
#18359562
0!
#18372687
1!
#18385812
0!
#18398937
1!
#18412062
0!
#18425187
1!
#18438312
0!
#18451437
1!
#18464562
0!
#18477687
1!
#18490812
0!
#18503937
1!
#18517062
0!
#18530187
1!
#18543312
0!
#18556437
1!
#18569562
0!
#18582687
1!
#18595812
0!
#18608937
1!
#18622062
0!
#18635187
1!
#18648312
0!
#18661437
1!
#18674562
0!
#18687687
1!
#18700812
0!
#18713937
1!
#18727062
0!
#18740187
1!
#18753312
0!
#18766437
1!
#18779562
0!
#18792687
1!
#18805812
0!
#18818937
1!
#18832062
0!
#18845187
1!
#18858312
0!
#18871437
1!
#18884562
0!
#18897687
1!
#18910812
0!
#18923937
1!
#18937062
0!
#18950187
1!
#18963312
0!
#18976437
1!
#18989562
0!
#19002687
1!
#19015812
0!
#19028937
1!
#19042062
0!
#19055187
1!
#19068312
0!
#19081437
1!
#19094562
0!
#19107687
1!
#19120812
0!
#19133937
1!
#19147062
0!
#19160187
1!
#19173312
0!
#19186437
1!
#19199562
0!
#19212687
1!
#19225812
0!
#19238937
1!
#19252062
0!
#19265187
1!
#19278312
0!
#19291437
1!
#19304562
0!
#19317687
1!
#19330812
0!
#19343937
1!
#19357062
0!
#19370187
1!
#19383312
0!
#19396437
1!
#19409562
0!
#19422687
1!
#19435812
0!
#19448937
1!
#19462062
0!
#19475187
1!
#19488312
0!
#19501437
1!
#19514562
0!
#19527687
1!
#19540812
0!
#19553937
1!
#19567062
0!
#19580187
1!
#19593312
0!
#19606437
1!
#19619562
0!
#19632687
1!
#19645812
0!
#19658937
1!
#19672062
0!
#19685187
1!
#19698312
0!
#19711437
1!
#19724562
0!
#19737687
1!
#19750812
0!
#19763937
1!
#19777062
0!
#19790187
1!
#19803312
0!
#19816437
1!
#19829562
0!
#19842687
1!
#19855812
0!
#19868937
1!
#19882062
0!
#19895187
1!
#19908312
0!
#19921437
1!
#19934562
0!
#19947687
1!
#19960812
0!
#19973937
1!
#19987062
0!
#20000187
1!
#20013312
0!
#20026437
1!
#20039562
0!
#20052687
1!
#20065812
0!
#20078937
1!
#20092062
0!
#20105187
1!
#20118312
0!
#20131437
1!
#20144562
0!
#20157687
1!
#20170812
0!
#20183937
1!
#20197062
0!
#20210187
1!
#20223312
0!
#20236437
1!
#20249562
0!
#20262687
1!
#20275812
0!
#20288937
1!
#20302062
0!
#20315187
1!
#20328312
0!
#20341437
1!
#20354562
0!
#20367687
1!
#20380812
0!
#20393937
1!
#20407062
0!
#20420187
1!
#20433312
0!
#20446437
1!
#20459562
0!
#20472687
1!
#20485812
0!
#20498937
1!
#20512062
0!
#20525187
1!
#20538312
0!
#20551437
1!
#20564562
0!
#20577687
1!
#20590812
0!
#20603937
1!
#20617062
0!
#20630187
1!
#20643312
0!
#20656437
1!
#20669562
0!
#20682687
1!
#20695812
0!
#20708937
1!
#20722062
0!
#20735187
1!
#20748312
0!
#20761437
1!
#20774562
0!
#20787687
1!
#20800812
0!
#20813937
1!
#20827062
0!
#20840187
1!
#20853312
0!
#20866437
1!
#20879562
0!
#20892687
1!
#20905812
0!
#20918937
1!
#20932062
0!
#20945187
1!
#20958312
0!
#20971437
1!
#20984562
0!
#20997687
1!
#21010812
0!
#21023937
1!
#21037062
0!
#21050187
1!
#21063312
0!
#21076437
1!
#21089562
0!
#21102687
1!
#21115812
0!
#21128937
1!
#21142062
0!
#21155187
1!
#21168312
0!
#21181437
1!
#21194562
0!
#21207687
1!
#21220812
0!
#21233937
1!
#21247062
0!
#21260187
1!
#21273312
0!
#21286437
1!
#21299562
0!
#21312687
1!
#21325812
0!
#21338937
1!
#21352062
0!
#21365187
1!
#21378312
0!
#21391437
1!
#21404562
0!
#21417687
1!
#21430812
0!
#21443937
1!
#21457062
0!
#21470187
1!
#21483312
0!
#21496437
1!
#21509562
0!
#21522687
1!
#21535812
0!
#21548937
1!
#21562062
0!
#21575187
1!
#21588312
0!
#21601437
1!
#21614562
0!
#21627687
1!
#21640812
0!
#21653937
1!
#21667062
0!
#21680187
1!
#21693312
0!
#21706437
1!
#21719562
0!
#21732687
1!
#21745812
0!
#21758937
1!
#21772062
0!
#21785187
1!
#21798312
0!
#21811437
1!
#21824562
0!
#21837687
1!
#21850812
0!
#21863937
1!
#21877062
0!
#21890187
1!
#21903312
0!
#21916437
1!
#21929562
0!
#21942687
1!
#21955812
0!
#21968937
1!
#21982062
0!
#21995187
1!
#22008312
0!
#22021437
1!
#22034562
0!
#22047687
1!
#22060812
0!
#22073937
1!
#22087062
0!
#22100187
1!
#22113312
0!
#22126437
1!
#22139562
0!
#22152687
1!
#22165812
0!
#22178937
1!
#22192062
0!
#22205187
1!
#22218312
0!
#22231437
1!
#22244562
0!
#22257687
1!
#22270812
0!
#22283937
1!
#22297062
0!
#22310187
1!
#22323312
0!
#22336437
1!
#22349562
0!
#22362687
1!
#22375812
0!
#22388937
1!
#22402062
0!
#22415187
1!
#22428312
0!
#22441437
1!
#22454562
0!
#22467687
1!
#22480812
0!
#22493937
1!
#22507062
0!
#22520187
1!
#22533312
0!
#22546437
1!
#22559562
0!
#22572687
1!
#22585812
0!
#22598937
1!
#22612062
0!
#22625187
1!
#22638312
0!
#22651437
1!
#22664562
0!
#22677687
1!
#22690812
0!
#22703937
1!
#22717062
0!
#22730187
1!
#22743312
0!
#22756437
1!
#22769562
0!
#22782687
1!
#22795812
0!
#22808937
1!
#22822062
0!
#22835187
1!
#22848312
0!
#22861437
1!
#22874562
0!
#22887687
1!
#22900812
0!
#22913937
1!
#22927062
0!
#22940187
1!
#22953312
0!
#22966437
1!
#22979562
0!
#22992687
1!
#23005812
0!
#23018937
1!
#23032062
0!
#23045187
1!
#23058312
0!
#23071437
1!
#23084562
0!
#23097687
1!
#23110812
0!
#23123937
1!
#23137062
0!
#23150187
1!
#23163312
0!
#23176437
1!
#23189562
0!
#23202687
1!
#23215812
0!
#23228937
1!
#23242062
0!
#23255187
1!
#23268312
0!
#23281437
1!
#23294562
0!
#23307687
1!
#23320812
0!
#23333937
1!
#23347062
0!
#23360187
1!
#23373312
0!
#23386437
1!
#23399562
0!
#23412687
1!
#23425812
0!
#23438937
1!
#23452062
0!
#23465187
1!
#23478312
0!
#23491437
1!
#23504562
0!
#23517687
1!
#23530812
0!
#23543937
1!
#23557062
0!
#23570187
1!
#23583312
0!
#23596437
1!
#23609562
0!
#23622687
1!
#23635812
0!
#23648937
1!
#23662062
0!
#23675187
1!
#23688312
0!
#23701437
1!
#23714562
0!
#23727687
1!
#23740812
0!
#23753937
1!
#23767062
0!
#23780187
1!
#23793312
0!
#23806437
1!
#23819562
0!
#23832687
1!
#23845812
0!
#23858937
1!
#23872062
0!
#23885187
1!
#23898312
0!
#23911437
1!
#23924562
0!
#23937687
1!
#23950812
0!
#23963937
1!
#23977062
0!
#23990187
1!
#24003312
0!
#24016437
1!
#24029562
0!
#24042687
1!
#24055812
0!
#24068937
1!
#24082062
0!
#24095187
1!
#24108312
0!
#24121437
1!
#24134562
0!
#24147687
1!
#24160812
0!
#24173937
1!
#24187062
0!
#24200187
1!
#24213312
0!
#24226437
1!
#24239562
0!
#24252687
1!
#24265812
0!
#24278937
1!
#24292062
0!
#24305187
1!
#24318312
0!
#24331437
1!
#24344562
0!
#24357687
1!
#24370812
0!
#24383937
1!
#24397062
0!
#24410187
1!
#24423312
0!
#24436437
1!
#24449562
0!
#24462687
1!
#24475812
0!
#24488937
1!
#24502062
0!
#24515187
1!
#24528312
0!
