File LogicAnalyzer/CarrierFrequency_v2.vcd
$version Generated by Wokwi.com $end
$date Thu, 31 Aug 2023 13:03:27 GMT $end
$timescale 1ns $end
$scope module logic $end
$var wire 1 ! D0 $end
$upscope $end
$enddefinitions $end
#0
0!
#22500
1!
#35625
0!
#48750
1!
#61875
0!
#75000
1!
#88125
0!
#101250
1!
#114375
0!
#127500
1!
#140625
0!
#153750
1!
#166875
0!
#180000
1!
#193125
0!
#206250
1!
#219375
0!
#232500
1!
#245625
0!
#258749
1!
#271875
0!
#285000
1!
#298125
0!
#311250
1!
#324375
0!
#337500
1!
#350625
0!
#363750
1!
#376875
0!
#390000
1!
#403125
0!
#416250
1!
#429375
0!
#442500
1!
#455625
0!
#468750
1!
#481875
0!
#495000
1!
#508125
0!
#521250
1!
#534375
0!
#547500
1!
#560625
0!
#573750
1!
#586875
0!
#600000
1!
#613125
0!
#626250
1!
#639375
0!
#652500
1!
#665625
0!
#678750
1!
#691875
0!
#705000
1!
#718125
0!
#731250
1!
#744375
0!
#757500
1!
#770625
0!
#783750
1!
#796875
0!
#810000
1!
#823125
0!
#836250
1!
#849375
0!
#862500
1!
#875625
0!
#888750
1!
#901875
0!
#915000
1!
#928125
0!
#941250
1!
#954375
0!
#967500
1!
#980625
0!
#993750
1!
#1006875
0!
#1020000
1!
#1033125
0!
#1046250
1!
#1059375
0!
#1072500
1!
#1085625
0!
#1098750
1!
#1111875
0!
#1125000
1!
#1138125
0!
#1151250
1!
#1164375
0!
#1177500
1!
#1190625
0!
#1203750
1!
#1216875
0!
#1230000
1!
#1243125
0!
#1256250
1!
#1269375
0!
#1282500
1!
#1295625
0!
#1308750
1!
#1321875
0!
#1335000
1!
#1348125
0!
#1361250
1!
#1374375
0!
#1387500
1!
#1400625
0!
#1413750
1!
#1426875
0!
#1440000
1!
#1453125
0!
#1466250
1!
#1479375
0!
#1492500
1!
#1505625
0!
#1518750
1!
#1531875
0!
#1545000
1!
#1558125
0!
#1571250
1!
#1584375
0!
#1597500
1!
#1610625
0!
#1623750
1!
#1636875
0!
#1650000
1!
#1663125
0!
#1676250
1!
#1689375
0!
#1702500
1!
#1715625
0!
#1728750
1!
#1741875
0!
#1755000
1!
#1768125
0!
#1781250
1!
#1794375
0!
#1807500
1!
#1820625
0!
#1833750
1!
#1846875
0!
#1860000
1!
#1873125
0!
#1886250
1!
#1899375
0!
#1912500
1!
#1925625
0!
#1938750
1!
#1951875
0!
#1965000
1!
#1978124
0!
#1991250
1!
#2004375
0!
#2017500
1!
#2030624
0!
#2043750
1!
#2056875
0!
#2069999
1!
#2083125
0!
#2096250
1!
#2109375
0!
#2122500
1!
#2135625
0!
#2148750
1!
#2161875
0!
#2175000
1!
#2188125
0!
#2201250
1!
#2214375
0!
#2227500
1!
#2240625
0!
#2253750
1!
#2266875
0!
#2280000
1!
#2293125
0!
#2306250
1!
#2319375
0!
#2332500
1!
#2345625
0!
#2358750
1!
#2371875
0!
#2385000
1!
#2398125
0!
#2411250
1!
#2424375
0!
#2437500
1!
#2450625
0!
#2463750
1!
#2476875
0!
#2490000
1!
#2503125
0!
#2516250
1!
#2529375
0!
#2542500
1!
#2555625
0!
#2568750
1!
#2581875
0!
#2595000
1!
#2608125
0!
#2621250
1!
#2634375
0!
#2647500
1!
#2660625
0!
#2673750
1!
#2686875
0!
#2700000
1!
#2713125
0!
#2726250
1!
#2739375
0!
#2752500
1!
#2765625
0!
#2778750
1!
#2791875
0!
#2805000
1!
#2818125
0!
#2831250
1!
#2844375
0!
#2857500
1!
#2870625
0!
#2883750
1!
#2896875
0!
#2910000
1!
#2923125
0!
#2936250
1!
#2949375
0!
#2962500
1!
#2975625
0!
#2988750
1!
#3001875
0!
#3015000
1!
#3028125
0!
#3041250
1!
#3054375
0!
#3067500
1!
#3080625
0!
#3093750
1!
#3106875
0!
#3120000
1!
#3133125
0!
#3146250
1!
#3159375
0!
#3172500
1!
#3185625
0!
#3198750
1!
#3211875
0!
#3225000
1!
#3238125
0!
#3251250
1!
#3264375
0!
#3277500
1!
#3290625
0!
#3303750
1!
#3316875
0!
#3330000
1!
#3343125
0!
#3356250
1!
#3369375
0!
#3382500
1!
#3395625
0!
#3408750
1!
#3421875
0!
#3435000
1!
#3448125
0!
#3461250
1!
#3474375
0!
#3487500
1!
#3500625
0!
#3513750
1!
#3526875
0!
#3540000
1!
#3553125
0!
#3566250
1!
#3579375
0!
#3592500
1!
#3605625
0!
#3618750
1!
#3631875
0!
#3645000
1!
#3658125
0!
#3671250
1!
#3684375
0!
#3697500
1!
#3710625
0!
#3723750
1!
#3736875
0!
#3750000
1!
#3763125
0!
#3776250
1!
#3789375
0!
#3802500
1!
#3815625
0!
#3828750
1!
#3841875
0!
#3855000
1!
#3868125
0!
#3881250
1!
#3894375
0!
#3907500
1!
#3920624
0!
#3933749
1!
#3946875
0!
#3960000
1!
#3973125
0!
#3986250
1!
#3999375
0!
#4012499
1!
#4025624
0!
#4038750
1!
#4051875
0!
#4065000
1!
#4078125
0!
#4091250
1!
#4104375
0!
#4117499
1!
#4130624
0!
#4143750
1!
#4156875
0!
#4170000
1!
#4183125
0!
#4196250
1!
#4209375
0!
#4222500
1!
#4235625
0!
#4248750
1!
#4261875
0!
#4275000
1!
#4288125
0!
#4301250
1!
#4314375
0!
#4327500
1!
#4340625
0!
#4353750
1!
#4366875
0!
#4380000
1!
#4393125
0!
#4406250
1!
#4419375
0!
#4432500
1!
#4445625
0!
#4458750
1!
#4471875
0!
#4485000
1!
#4498125
0!
#4511250
1!
#4524375
0!
#4537500
1!
#4550625
0!
#4563750
1!
#4576875
0!
#4590000
1!
#4603125
0!
#4616250
1!
#4629375
0!
#4642500
1!
#4655625
0!
#4668750
1!
#4681875
0!
#4695000
1!
#4708125
0!
#4721250
1!
#4734375
0!
#4747500
1!
#4760625
0!
#4773750
1!
#4786875
0!
#4800000
1!
#4813125
0!
#4826250
1!
#4839375
0!
#4852500
1!
#4865625
0!
#4878750
1!
#4891875
0!
#4905000
1!
#4918125
0!
#4931250
1!
#4944375
0!
#4957500
1!
#4970625
0!
#4983750
1!
#4996875
0!
#5010000
1!
#5023125
0!
#5036250
1!
#5049375
0!
#5062500
1!
#5075625
0!
#5088750
1!
#5101875
0!
#5115000
1!
#5128125
0!
#5141250
1!
#5154375
0!
#5167500
1!
#5180625
0!
#5193750
1!
#5206875
0!
#5220000
1!
#5233125
0!
#5246250
1!
#5259375
0!
#5272500
1!
#5285625
0!
#5298750
1!
#5311875
0!
#5325000
1!
#5338125
0!
#5351250
1!
#5364375
0!
#5377500
1!
#5390625
0!
#5403750
1!
#5416875
0!
#5430000
1!
#5443125
0!
#5456250
1!
#5469375
0!
#5482500
1!
#5495625
0!
#5508750
1!
#5521875
0!
#5535000
1!
#5548125
0!
#5561250
1!
#5574375
0!
#5587500
1!
#5600625
0!
#5613750
1!
#5626875
0!
#5640000
1!
#5653125
0!
#5666250
1!
#5679375
0!
#5692500
1!
#5705625
0!
#5718750
1!
#5731875
0!
#5745000
1!
#5758125
0!
#5771250
1!
#5784375
0!
#5797500
1!
#5810625
0!
#5823750
1!
#5836875
0!
#5850000
1!
#5863125
0!
#5876250
1!
#5889375
0!
#5902500
1!
#5915625
0!
#5928750
1!
#5941875
0!
#5955000
1!
#5968125
0!
#5981250
1!
#5994375
0!
#6007500
1!
#6020625
0!
#6033750
1!
#6046875
0!
#6060000
1!
#6073125
0!
#6086250
1!
#6099375
0!
#6112500
1!
#6125625
0!
#6138750
1!
#6151875
0!
#6165000
1!
#6178125
0!
#6191250
1!
#6204375
0!
#6217500
1!
#6230625
0!
#6243750
1!
#6256875
0!
#6270000
1!
#6283125
0!
#6296250
1!
#6309375
0!
#6322500
1!
#6335625
0!
#6348750
1!
#6361875
0!
#6375000
1!
#6388125
0!
#6401250
1!
#6414375
0!
#6427500
1!
#6440625
0!
#6453750
1!
#6466875
0!
#6480000
1!
#6493125
0!
#6506250
1!
#6519375
0!
#6532500
1!
#6545625
0!
#6558750
1!
#6571875
0!
#6585000
1!
#6598125
0!
#6611250
1!
#6624375
0!
#6637500
1!
#6650625
0!
#6663750
1!
#6676875
0!
#6690000
1!
#6703125
0!
#6716250
1!
#6729375
0!
#6742500
1!
#6755625
0!
#6768750
1!
#6781875
0!
#6795000
1!
#6808125
0!
#6821250
1!
#6834375
0!
#6847500
1!
#6860625
0!
#6873750
1!
#6886875
0!
#6900000
1!
#6913125
0!
#6926250
1!
#6939375
0!
#6952500
1!
#6965625
0!
#6978750
1!
#6991875
0!
#7005000
1!
#7018125
0!
#7031250
1!
#7044375
0!
#7057500
1!
#7070625
0!
#7083750
1!
#7096875
0!
#7110000
1!
#7123125
0!
#7136250
1!
#7149375
0!
#7162500
1!
#7175625
0!
#7188750
1!
#7201875
0!
#7215000
1!
#7228125
0!
#7241250
1!
#7254375
0!
#7267500
1!
#7280625
0!
#7293750
1!
#7306875
0!
#7320000
1!
#7333125
0!
#7346250
1!
#7359375
0!
#7372500
1!
#7385625
0!
#7398750
1!
#7411875
0!
#7425000
1!
#7438125
0!
#7451250
1!
#7464375
0!
#7477500
1!
#7490625
0!
#7503750
1!
#7516875
0!
#7530000
1!
#7543125
0!
#7556250
1!
#7569375
0!
#7582500
1!
#7595625
0!
#7608750
1!
#7621875
0!
#7635000
1!
#7648125
0!
#7661250
1!
#7674375
0!
#7687500
1!
#7700625
0!
#7713750
1!
#7726875
0!
#7740000
1!
#7753125
0!
#7766250
1!
#7779375
0!
#7792500
1!
#7805625
0!
#7818749
1!
#7831875
0!
#7845000
1!
#7858125
0!
#7871250
1!
#7884375
0!
#7897500
1!
#7910624
0!
#7923750
1!
#7936874
0!
#7950000
1!
#7963125
0!
#7976250
1!
#7989375
0!
#8002499
1!
#8015625
0!
#8028749
1!
#8041875
0!
#8055000
1!
#8068125
0!
#8081250
1!
#8094374
0!
#8107500
1!
#8120624
0!
#8133750
1!
#8146875
0!
#8160000
1!
#8173125
0!
#8186250
1!
#8199375
0!
#8212499
1!
#8225625
0!
#8238750
1!
#8251875
0!
#8265000
1!
#8278125
0!
#8291250
1!
#8304374
0!
#8317500
1!
#8330624
0!
#8343750
1!
#8356875
0!
#8370000
1!
#8383125
0!
#8396250
1!
#8409375
0!
#8422500
1!
#8435625
0!
#8448750
1!
#8461875
0!
#8475000
1!
#8488125
0!
#8501250
1!
#8514375
0!
#8527500
1!
#8540625
0!
#8553750
1!
#8566875
0!
#8580000
1!
#8593125
0!
#8606250
1!
#8619375
0!
#8632500
1!
#8645625
0!
#8658750
1!
#8671875
0!
#8685000
1!
#8698125
0!
#8711250
1!
#8724375
0!
#8737500
1!
#8750625
0!
#8763750
1!
#8776875
0!
#8790000
1!
#8803125
0!
#8816250
1!
#8829375
0!
#8842500
1!
#8855625
0!
#8868750
1!
#8881875
0!
#8895000
1!
#8908125
0!
#8921250
1!
#8934375
0!
#8947500
1!
#8960625
0!
#8973750
1!
#8986875
0!
#9000000
1!
#9013125
0!
#9026250
1!
#9039375
0!
#9052500
1!
#9065625
0!
#9078750
1!
#9091875
0!
#9105000
1!
#9118125
0!
#9131250
1!
#9144375
0!
#9157500
1!
#9170625
0!
#9183750
1!
#9196875
0!
#9210000
1!
#9223125
0!
#9236250
1!
#9249375
0!
#9262500
1!
#9275625
0!
#9288750
1!
#9301875
0!
#9315000
1!
#9328125
0!
#9341250
1!
#9354375
0!
#9367500
1!
#9380625
0!
#9393750
1!
#9406875
0!
#9420000
1!
#9433125
0!
#9446250
1!
#9459375
0!
#9472500
1!
#9485625
0!
#9498750
1!
#9511875
0!
#9525000
1!
#9538125
0!
#9551250
1!
#9564375
0!
#9577500
1!
#9590625
0!
#9603750
1!
#9616875
0!
#9630000
1!
#9643125
0!
#9656250
1!
#9669375
0!
#9682500
1!
#9695625
0!
#9708750
1!
#9721875
0!
#9735000
1!
#9748125
0!
#9761250
1!
#9774375
0!
#9787500
1!
#9800625
0!
#9813750
1!
#9826875
0!
#9840000
1!
#9853125
0!
#9866250
1!
#9879375
0!
#9892500
1!
#9905625
0!
#9918750
1!
#9931875
0!
#9945000
1!
#9958125
0!
#9971250
1!
#9984375
0!
#9997500
1!
#10010625
0!
#10023750
1!
#10036875
0!
#10050000
1!
#10063125
0!
#10076250
1!
#10089375
0!
#10102500
1!
#10115625
0!
#10128750
1!
#10141875
0!
#10155000
1!
#10168125
0!
#10181250
1!
#10194375
0!
#10207500
1!
#10220625
0!
#10233750
1!
#10246875
0!
#10260000
1!
#10273125
0!
#10286250
1!
#10299375
0!
#10312500
1!
#10325625
0!
#10338750
1!
#10351875
0!
#10365000
1!
#10378125
0!
#10391250
1!
#10404375
0!
#10417500
1!
#10430625
0!
#10443750
1!
#10456875
0!
#10470000
1!
#10483125
0!
#10496250
1!
#10509375
0!
#10522500
1!
#10535625
0!
#10548750
1!
#10561875
0!
#10575000
1!
#10588125
0!
#10601250
1!
#10614375
0!
#10627500
1!
#10640625
0!
#10653750
1!
#10666875
0!
#10680000
1!
#10693125
0!
#10706250
1!
#10719375
0!
#10732500
1!
#10745625
0!
#10758750
1!
#10771875
0!
#10785000
1!
#10798125
0!
#10811250
1!
#10824375
0!
#10837500
1!
#10850625
0!
#10863750
1!
#10876875
0!
#10890000
1!
#10903125
0!
#10916250
1!
#10929375
0!
#10942500
1!
#10955625
0!
#10968750
1!
#10981875
0!
#10995000
1!
#11008125
0!
#11021250
1!
#11034375
0!
#11047500
1!
#11060625
0!
#11073750
1!
#11086875
0!
#11100000
1!
#11113125
0!
#11126250
1!
#11139375
0!
#11152500
1!
#11165625
0!
#11178750
1!
#11191875
0!
#11205000
1!
#11218125
0!
#11231250
1!
#11244375
0!
#11257500
1!
#11270625
0!
#11283750
1!
#11296875
0!
#11310000
1!
#11323125
0!
#11336250
1!
#11349375
0!
#11362500
1!
#11375625
0!
#11388750
1!
#11401875
0!
#11415000
1!
#11428125
0!
#11441250
1!
#11454375
0!
#11467500
1!
#11480625
0!
#11493750
1!
#11506875
0!
#11520000
1!
#11533125
0!
#11546250
1!
#11559375
0!
#11572500
1!
#11585625
0!
#11598750
1!
#11611875
0!
#11625000
1!
#11638125
0!
#11651250
1!
#11664375
0!
#11677500
1!
#11690625
0!
#11703750
1!
#11716875
0!
#11730000
1!
#11743125
0!
#11756250
1!
#11769375
0!
#11782500
1!
#11795625
0!
#11808750
1!
#11821875
0!
#11835000
1!
#11848125
0!
#11861250
1!
#11874375
0!
#11887500
1!
#11900625
0!
#11913750
1!
#11926875
0!
#11940000
1!
#11953125
0!
#11966250
1!
#11979375
0!
#11992500
1!
#12005625
0!
#12018750
1!
#12031875
0!
#12045000
1!
#12058125
0!
#12071250
1!
#12084375
0!
#12097500
1!
#12110625
0!
#12123750
1!
#12136875
0!
#12150000
1!
#12163125
0!
#12176250
1!
#12189375
0!
#12202500
1!
#12215625
0!
#12228750
1!
#12241875
0!
#12255000
1!
#12268125
0!
#12281250
1!
#12294375
0!
#12307500
1!
#12320625
0!
#12333750
1!
#12346875
0!
#12360000
1!
#12373125
0!
#12386250
1!
#12399375
0!
#12412500
1!
#12425625
0!
#12438750
1!
#12451875
0!
#12465000
1!
#12478125
0!
#12491250
1!
#12504375
0!
#12517500
1!
#12530625
0!
#12543750
1!
#12556875
0!
#12570000
1!
#12583125
0!
#12596250
1!
#12609375
0!
#12622500
1!
#12635625
0!
#12648750
1!
#12661875
0!
#12675000
1!
#12688125
0!
#12701250
1!
#12714375
0!
#12727500
1!
#12740625
0!
#12753750
1!
#12766875
0!
#12780000
1!
#12793125
0!
#12806250
1!
#12819375
0!
#12832500
1!
#12845625
0!
#12858750
1!
#12871875
0!
#12885000
1!
#12898125
0!
#12911250
1!
#12924375
0!
#12937500
1!
#12950625
0!
#12963750
1!
#12976875
0!
#12990000
1!
#13003125
0!
#13016250
1!
#13029375
0!
#13042500
1!
#13055625
0!
#13068750
1!
#13081875
0!
#13095000
1!
#13108125
0!
#13121250
1!
#13134375
0!
#13147500
1!
#13160625
0!
#13173750
1!
#13186875
0!
#13200000
1!
#13213125
0!
#13226250
1!
#13239375
0!
#13252500
1!
#13265625
0!
#13278750
1!
#13291875
0!
#13305000
1!
#13318125
0!
#13331250
1!
#13344375
0!
#13357500
1!
#13370625
0!
#13383750
1!
#13396875
0!
#13410000
1!
#13423125
0!
#13436250
1!
#13449375
0!
#13462500
1!
#13475625
0!
#13488750
1!
#13501875
0!
#13515000
1!
#13528125
0!
#13541250
1!
#13554375
0!
#13567500
1!
#13580625
0!
#13593750
1!
#13606875
0!
#13620000
1!
#13633125
0!
#13646250
1!
#13659375
0!
#13672500
1!
#13685625
0!
#13698750
1!
#13711875
0!
#13725000
1!
#13738125
0!
#13751250
1!
#13764375
0!
#13777500
1!
#13790625
0!
#13803750
1!
#13816875
0!
#13830000
1!
#13843125
0!
#13856250
1!
#13869375
0!
#13882500
1!
#13895625
0!
#13908750
1!
#13921875
0!
#13935000
1!
#13948125
0!
#13961250
1!
#13974375
0!
#13987500
1!
#14000625
0!
#14013750
1!
#14026875
0!
#14040000
1!
#14053125
0!
#14066250
1!
#14079375
0!
#14092500
1!
#14105625
0!
#14118750
1!
#14131875
0!
#14145000
1!
#14158125
0!
#14171250
1!
#14184375
0!
#14197500
1!
#14210625
0!
#14223750
1!
#14236875
0!
#14250000
1!
#14263125
0!
#14276250
1!
#14289375
0!
#14302500
1!
#14315625
0!
#14328750
1!
#14341875
0!
#14355000
1!
#14368125
0!
#14381250
1!
#14394375
0!
#14407500
1!
#14420625
0!
#14433750
1!
#14446875
0!
#14460000
1!
#14473125
0!
#14486250
1!
#14499375
0!
#14512500
1!
#14525625
0!
#14538750
1!
#14551875
0!
#14565000
1!
#14578125
0!
#14591250
1!
#14604375
0!
#14617500
1!
#14630625
0!
#14643750
1!
#14656875
0!
#14670000
1!
#14683125
0!
#14696250
1!
#14709375
0!
#14722500
1!
#14735625
0!
#14748750
1!
#14761875
0!
#14775000
1!
#14788125
0!
#14801250
1!
#14814375
0!
#14827500
1!
#14840625
0!
#14853750
1!
#14866875
0!
#14880000
1!
#14893125
0!
#14906250
1!
#14919375
0!
#14932500
1!
#14945625
0!
#14958750
1!
#14971875
0!
#14985000
1!
#14998125
0!
#15011250
1!
#15024375
0!
#15037500
1!
#15050625
0!
#15063750
1!
#15076875
0!
#15090000
1!
#15103125
0!
#15116250
1!
#15129375
0!
#15142500
1!
#15155625
0!
#15168750
1!
#15181875
0!
#15195000
1!
#15208125
0!
#15221250
1!
#15234375
0!
#15247500
1!
#15260625
0!
#15273750
1!
#15286875
0!
#15300000
1!
#15313125
0!
#15326250
1!
#15339375
0!
#15352500
1!
#15365625
0!
#15378750
1!
#15391875
0!
#15405000
1!
#15418125
0!
#15431250
1!
#15444375
0!
#15457500
1!
#15470625
0!
#15483750
1!
#15496875
0!
#15510000
1!
#15523125
0!
#15536250
1!
#15549375
0!
#15562500
1!
#15575625
0!
#15588750
1!
#15601875
0!
#15615000
1!
#15628125
0!
#15641249
1!
#15654375
0!
#15667500
1!
#15680625
0!
#15693750
1!
#15706874
0!
#15720000
1!
#15733125
0!
#15746250
1!
#15759375
0!
#15772499
1!
#15785625
0!
#15798750
1!
#15811875
0!
#15824999
1!
#15838125
0!
#15851250
1!
#15864375
0!
#15877500
1!
#15890624
0!
#15903750
1!
#15916875
0!
#15930000
1!
#15943124
0!
#15956250
1!
#15969375
0!
#15982500
1!
#15995625
0!
#16008749
1!
#16021875
0!
#16035000
1!
#16048125
0!
#16061250
1!
#16074374
0!
#16087500
1!
#16100625
0!
#16113750
1!
#16126874
0!
#16140000
1!
#16153125
0!
#16166250
1!
#16179375
0!
#16192499
1!
#16205625
0!
#16218750
1!
#16231875
0!
#16244999
1!
#16258124
0!
#16271250
1!
#16284375
0!
#16297500
1!
#16310624
0!
#16323750
1!
#16336875
0!
#16350000
1!
#16363125
0!
#16376249
1!
#16389375
0!
#16402500
1!
#16415625
0!
#16428749
1!
#16441875
0!
#16455000
1!
#16468125
0!
#16481250
1!
#16494374
0!
#16507500
1!
#16520625
0!
#16533750
1!
#16546875
0!
#16559999
1!
#16573125
0!
#16586250
1!
#16599375
0!
#16612499
1!
#16625625
0!
#16638750
1!
#16651875
0!
#16665000
1!
#16678124
0!
#16691250
1!
#16704375
0!
#16717500
1!
#16730624
0!
#16743750
1!
#16756875
0!
#16770000
1!
#16783125
0!
#16796250
1!
#16809375
0!
#16822500
1!
#16835625
0!
#16848750
1!
#16861875
0!
#16875000
1!
#16888125
0!
#16901250
1!
#16914375
0!
#16927500
1!
#16940625
0!
#16953750
1!
#16966875
0!
#16980000
1!
#16993125
0!
#17006250
1!
#17019375
0!
#17032500
1!
#17045625
0!
#17058750
1!
#17071875
0!
#17085000
1!
#17098125
0!
#17111250
1!
#17124375
0!
#17137500
1!
#17150625
0!
#17163750
1!
#17176875
0!
#17190000
1!
#17203125
0!
#17216250
1!
#17229375
0!
#17242500
1!
#17255625
0!
#17268750
1!
#17281875
0!
#17295000
1!
#17308125
0!
#17321250
1!
#17334375
0!
#17347500
1!
#17360625
0!
#17373750
1!
#17386875
0!
#17400000
1!
#17413125
0!
#17426250
1!
#17439375
0!
#17452500
1!
#17465625
0!
#17478750
1!
#17491875
0!
#17505000
1!
#17518125
0!
#17531250
1!
#17544375
0!
#17557500
1!
#17570625
0!
#17583750
1!
#17596875
0!
#17610000
1!
#17623125
0!
#17636250
1!
#17649375
0!
#17662500
1!
#17675625
0!
#17688750
1!
#17701875
0!
#17715000
1!
#17728125
0!
#17741250
1!
#17754375
0!
#17767500
1!
#17780625
0!
#17793750
1!
#17806875
0!
#17820000
1!
#17833125
0!
#17846250
1!
#17859375
0!
#17872500
1!
#17885625
0!
#17898750
1!
#17911875
0!
#17925000
1!
#17938125
0!
#17951250
1!
#17964375
0!
#17977500
1!
#17990625
0!
#18003750
1!
#18016875
0!
#18030000
1!
#18043125
0!
#18056250
1!
#18069375
0!
#18082500
1!
#18095625
0!
#18108750
1!
#18121875
0!
#18135000
1!
#18148125
0!
#18161250
1!
#18174375
0!
#18187500
1!
#18200625
0!
#18213750
1!
#18226875
0!
#18240000
1!
#18253125
0!
#18266250
1!
#18279375
0!
#18292500
1!
#18305625
0!
#18318750
1!
#18331875
0!
#18345000
1!
#18358125
0!
#18371250
1!
#18384375
0!
#18397500
1!
#18410625
0!
#18423750
1!
#18436875
0!
#18450000
1!
#18463125
0!
#18476250
1!
#18489375
0!
#18502500
1!
#18515625
0!
#18528750
1!
#18541875
0!
#18555000
1!
#18568125
0!
#18581250
1!
#18594375
0!
#18607500
1!
#18620625
0!
#18633750
1!
#18646875
0!
#18660000
1!
#18673125
0!
#18686250
1!
#18699375
0!
#18712500
1!
#18725625
0!
#18738750
1!
#18751875
0!
#18765000
1!
#18778125
0!
#18791250
1!
#18804375
0!
#18817500
1!
#18830625
0!
#18843750
1!
#18856875
0!
#18870000
1!
#18883125
0!
#18896250
1!
#18909375
0!
#18922500
1!
#18935625
0!
#18948750
1!
#18961875
0!
#18975000
1!
#18988125
0!
#19001250
1!
#19014375
0!
#19027500
1!
#19040625
0!
#19053750
1!
#19066875
0!
#19080000
1!
#19093125
0!
#19106250
1!
#19119375
0!
#19132500
1!
#19145625
0!
#19158750
1!
#19171875
0!
#19185000
1!
#19198125
0!
#19211250
1!
#19224375
0!
#19237500
1!
#19250625
0!
#19263750
1!
#19276875
0!
#19290000
1!
#19303125
0!
#19316250
1!
#19329375
0!
#19342500
1!
#19355625
0!
#19368750
1!
#19381875
0!
#19395000
1!
#19408125
0!
#19421250
1!
#19434375
0!
#19447500
1!
#19460625
0!
#19473750
1!
#19486875
0!
#19500000
1!
#19513125
0!
#19526250
1!
#19539375
0!
#19552500
1!
#19565625
0!
#19578750
1!
#19591875
0!
#19605000
1!
#19618125
0!
#19631250
1!
#19644375
0!
#19657500
1!
#19670625
0!
#19683750
1!
#19696875
0!
#19710000
1!
#19723125
0!
#19736250
1!
#19749375
0!
#19762500
1!
#19775625
0!
#19788750
1!
#19801875
0!
#19815000
1!
#19828125
0!
#19841250
1!
#19854375
0!
#19867500
1!
#19880625
0!
#19893750
1!
#19906875
0!
#19920000
1!
#19933125
0!
#19946250
1!
#19959375
0!
#19972500
1!
#19985625
0!
#19998750
1!
#20011875
0!
#20025000
1!
#20038125
0!
#20051250
1!
#20064375
0!
#20077500
1!
#20090625
0!
#20103750
1!
#20116875
0!
#20130000
1!
#20143125
0!
#20156250
1!
#20169375
0!
#20182500
1!
#20195625
0!
#20208750
1!
#20221875
0!
#20235000
1!
#20248125
0!
#20261250
1!
#20274375
0!
#20287500
1!
#20300625
0!
#20313750
1!
#20326875
0!
#20340000
1!
#20353125
0!
#20366250
1!
#20379375
0!
#20392500
1!
#20405625
0!
#20418750
1!
#20431875
0!
#20445000
1!
#20458125
0!
#20471250
1!
#20484375
0!
#20497500
1!
#20510625
0!
#20523750
1!
#20536875
0!
#20550000
1!
#20563125
0!
#20576250
1!
#20589375
0!
#20602500
1!
#20615625
0!
#20628750
1!
#20641875
0!
#20655000
1!
#20668125
0!
#20681250
1!
#20694375
0!
#20707500
1!
#20720625
0!
#20733750
1!
#20746875
0!
#20760000
1!
#20773125
0!
#20786250
1!
#20799375
0!
#20812500
1!
#20825625
0!
#20838750
1!
#20851875
0!
#20865000
1!
#20878125
0!
#20891250
1!
#20904375
0!
#20917500
1!
#20930625
0!
#20943750
1!
#20956875
0!
#20970000
1!
#20983125
0!
#20996250
1!
#21009375
0!
#21022500
1!
#21035625
0!
#21048750
1!
#21061875
0!
#21075000
1!
#21088125
0!
#21101250
1!
#21114375
0!
#21127500
1!
#21140625
0!
#21153750
1!
#21166875
0!
#21180000
1!
#21193125
0!
#21206250
1!
#21219375
0!
#21232500
1!
#21245625
0!
#21258750
1!
#21271875
0!
#21285000
1!
#21298125
0!
#21311250
1!
#21324375
0!
#21337500
1!
#21350625
0!
#21363750
1!
#21376875
0!
#21390000
1!
#21403125
0!
#21416250
1!
#21429375
0!
#21442500
1!
#21455625
0!
#21468750
1!
#21481875
0!
#21495000
1!
#21508125
0!
#21521250
1!
#21534375
0!
#21547500
1!
#21560625
0!
#21573750
1!
#21586875
0!
#21600000
1!
#21613125
0!
#21626250
1!
#21639375
0!
#21652500
1!
#21665625
0!
#21678750
1!
#21691875
0!
#21705000
1!
#21718125
0!
#21731250
1!
#21744375
0!
#21757500
1!
#21770625
0!
#21783750
1!
#21796875
0!
#21810000
1!
#21823125
0!
#21836250
1!
#21849375
0!
#21862500
1!
#21875625
0!
#21888750
1!
#21901875
0!
#21915000
1!
#21928125
0!
#21941250
1!
#21954375
0!
#21967500
1!
#21980625
0!
#21993750
1!
#22006875
0!
#22020000
1!
#22033125
0!
#22046250
1!
#22059375
0!
#22072500
1!
#22085625
0!
#22098750
1!
#22111875
0!
#22125000
1!
#22138125
0!
#22151250
1!
#22164375
0!
#22177500
1!
#22190625
0!
#22203750
1!
#22216875
0!
#22230000
1!
#22243125
0!
#22256250
1!
#22269375
0!
#22282500
1!
#22295625
0!
#22308750
1!
#22321875
0!
#22335000
1!
#22348125
0!
#22361250
1!
#22374375
0!
#22387500
1!
#22400625
0!
#22413750
1!
#22426875
0!
#22440000
1!
#22453125
0!
#22466250
1!
#22479375
0!
#22492500
1!
#22505625
0!
#22518750
1!
#22531875
0!
#22545000
1!
#22558125
0!
#22571250
1!
#22584375
0!
#22597500
1!
#22610625
0!
#22623750
1!
#22636875
0!
#22650000
1!
#22663125
0!
#22676250
1!
#22689375
0!
#22702500
1!
#22715625
0!
#22728750
1!
#22741875
0!
#22755000
1!
#22768125
0!
#22781250
1!
#22794375
0!
#22807500
1!
#22820625
0!
#22833750
1!
#22846875
0!
#22860000
1!
#22873125
0!
#22886250
1!
#22899375
0!
#22912500
1!
#22925625
0!
#22938750
1!
#22951875
0!
#22965000
1!
#22978125
0!
#22991250
1!
#23004375
0!
#23017500
1!
#23030625
0!
#23043750
1!
#23056875
0!
#23070000
1!
#23083125
0!
#23096250
1!
#23109375
0!
#23122500
1!
#23135625
0!
#23148750
1!
#23161875
0!
#23175000
1!
#23188125
0!
#23201250
1!
#23214375
0!
#23227500
1!
#23240625
0!
#23253750
1!
#23266875
0!
#23280000
1!
#23293125
0!
#23306250
1!
#23319375
0!
#23332500
1!
#23345625
0!
#23358750
1!
#23371875
0!
#23385000
1!
#23398125
0!
#23411250
1!
#23424375
0!
#23437500
1!
#23450625
0!
#23463750
1!
#23476875
0!
#23490000
1!
#23503125
0!
#23516250
1!
#23529375
0!
#23542500
1!
#23555625
0!
#23568750
1!
#23581875
0!
#23595000
1!
#23608125
0!
#23621250
1!
#23634375
0!
#23647500
1!
#23660625
0!
#23673750
1!
#23686875
0!
#23700000
1!
#23713125
0!
#23726250
1!
#23739375
0!
#23752500
1!
#23765625
0!
#23778750
1!
#23791875
0!
#23805000
1!
#23818125
0!
#23831250
1!
#23844375
0!
#23857500
1!
#23870625
0!
#23883750
1!
#23896875
0!
#23910000
1!
#23923125
0!
#23936250
1!
#23949375
0!
#23962500
1!
#23975625
0!
#23988750
1!
#24001875
0!
#24015000
1!
#24028125
0!
#24041250
1!
#24054375
0!
#24067500
1!
#24080625
0!
#24093750
1!
#24106875
0!
#24120000
1!
#24133125
0!
#24146250
1!
#24159375
0!
#24172500
1!
#24185625
0!
#24198750
1!
#24211875
0!
#24225000
1!
#24238125
0!
#24251250
1!
#24264375
0!
#24277500
1!
#24290625
0!
#24303750
1!
#24316875
0!
#24330000
1!
#24343125
0!
#24356250
1!
#24369375
0!
#24382500
1!
#24395625
0!
#24408750
1!
#24421875
0!
#24435000
1!
#24448125
0!
#24461250
1!
#24474375
0!
#24487500
1!
#24500625
0!
#24513750
1!
#24526875
0!
