File LogicAnalyzer/Nec_TuttiTasti.vcd
$version Generated by Wokwi.com $end
$date Thu, 31 Aug 2023 14:46:33 GMT $end
$timescale 1ns $end
$scope module logic $end
$var wire 1 ! D0 $end
$upscope $end
$enddefinitions $end
#0
0!
#1321063500
1!
#1321076625
0!
#1321089750
1!
#1321102875
0!
#1321116000
1!
#1321129125
0!
#1321142250
1!
#1321155375
0!
#1321168500
1!
#1321181625
0!
#1321194750
1!
#1321207875
0!
#1321221000
1!
#1321234125
0!
#1321247250
1!
#1321260375
0!
#1321273500
1!
#1321286625
0!
#1321299750
1!
#1321312875
0!
#1321326000
1!
#1321339125
0!
#1321352250
1!
#1321365375
0!
#1321378500
1!
#1321391625
0!
#1321404750
1!
#1321417875
0!
#1321431000
1!
#1321444125
0!
#1321457250
1!
#1321470375
0!
#1321483500
1!
#1321496625
0!
#1321509750
1!
#1321522875
0!
#1321536000
1!
#1321549125
0!
#1321562250
1!
#1321575375
0!
#1321588500
1!
#1321601625
0!
#1321614750
1!
#1321627875
0!
#1321641000
1!
#1321654125
0!
#1321667250
1!
#1321680375
0!
#1321693500
1!
#1321706625
0!
#1321719750
1!
#1321732875
0!
#1321746000
1!
#1321759125
0!
#1321772250
1!
#1321785375
0!
#1321798500
1!
#1321811625
0!
#1321824750
1!
#1321837875
0!
#1321851000
1!
#1321864125
0!
#1321877250
1!
#1321890375
0!
#1321903500
1!
#1321916625
0!
#1321929750
1!
#1321942875
0!
#1321956000
1!
#1321969125
0!
#1321982250
1!
#1321995375
0!
#1322008500
1!
#1322021625
0!
#1322034750
1!
#1322047875
0!
#1322061000
1!
#1322074125
0!
#1322087250
1!
#1322100375
0!
#1322113500
1!
#1322126625
0!
#1322139750
1!
#1322152875
0!
#1322166000
1!
#1322179125
0!
#1322192250
1!
#1322205375
0!
#1322218500
1!
#1322231625
0!
#1322244750
1!
#1322257875
0!
#1322271000
1!
#1322284125
0!
#1322297250
1!
#1322310375
0!
#1322323500
1!
#1322336625
0!
#1322349750
1!
#1322362875
0!
#1322376000
1!
#1322389125
0!
#1322402250
1!
#1322415375
0!
#1322428500
1!
#1322441625
0!
#1322454750
1!
#1322467875
0!
#1322481000
1!
#1322494125
0!
#1322507250
1!
#1322520375
0!
#1322533500
1!
#1322546625
0!
#1322559750
1!
#1322572875
0!
#1322586000
1!
#1322599125
0!
#1322612250
1!
#1322625375
0!
#1322638500
1!
#1322651625
0!
#1322664750
1!
#1322677875
0!
#1322691000
1!
#1322704125
0!
#1322717250
1!
#1322730375
0!
#1322743500
1!
#1322756625
0!
#1322769750
1!
#1322782875
0!
#1322796000
1!
#1322809125
0!
#1322822250
1!
#1322835375
0!
#1322848500
1!
#1322861625
0!
#1322874750
1!
#1322887875
0!
#1322901000
1!
#1322914125
0!
#1322927250
1!
#1322940375
0!
#1322953500
1!
#1322966625
0!
#1322979750
1!
#1322992875
0!
#1323006000
1!
#1323019125
0!
#1323032250
1!
#1323045375
0!
#1323058500
1!
#1323071625
0!
#1323084750
1!
#1323097875
0!
#1323111000
1!
#1323124125
0!
#1323137250
1!
#1323150375
0!
#1323163500
1!
#1323176625
0!
#1323189750
1!
#1323202875
0!
#1323216000
1!
#1323229125
0!
#1323242250
1!
#1323255375
0!
#1323268500
1!
#1323281625
0!
#1323294750
1!
#1323307875
0!
#1323321000
1!
#1323334125
0!
#1323347250
1!
#1323360375
0!
#1323373500
1!
#1323386625
0!
#1323399750
1!
#1323412875
0!
#1323426000
1!
#1323439125
0!
#1323452250
1!
#1323465375
0!
#1323478500
1!
#1323491625
0!
#1323504750
1!
#1323517875
0!
#1323531000
1!
#1323544125
0!
#1323557250
1!
#1323570375
0!
#1323583500
1!
#1323596625
0!
#1323609750
1!
#1323622875
0!
#1323636000
1!
#1323649125
0!
#1323662250
1!
#1323675375
0!
#1323688500
1!
#1323701625
0!
#1323714750
1!
#1323727875
0!
#1323741000
1!
#1323754125
0!
#1323767250
1!
#1323780375
0!
#1323793500
1!
#1323806625
0!
#1323819750
1!
#1323832875
0!
#1323846000
1!
#1323859125
0!
#1323872250
1!
#1323885375
0!
#1323898500
1!
#1323911625
0!
#1323924750
1!
#1323937875
0!
#1323951000
1!
#1323964125
0!
#1323977250
1!
#1323990375
0!
#1324003500
1!
#1324016625
0!
#1324029750
1!
#1324042875
0!
#1324056000
1!
#1324069125
0!
#1324082250
1!
#1324095375
0!
#1324108500
1!
#1324121625
0!
#1324134750
1!
#1324147875
0!
#1324161000
1!
#1324174125
0!
#1324187250
1!
#1324200375
0!
#1324213500
1!
#1324226625
0!
#1324239750
1!
#1324252875
0!
#1324266000
1!
#1324279125
0!
#1324292250
1!
#1324305375
0!
#1324318500
1!
#1324331625
0!
#1324344750
1!
#1324357875
0!
#1324371000
1!
#1324384125
0!
#1324397250
1!
#1324410375
0!
#1324423500
1!
#1324436625
0!
#1324449750
1!
#1324462875
0!
#1324476000
1!
#1324489125
0!
#1324502250
1!
#1324515375
0!
#1324528500
1!
#1324541625
0!
#1324554750
1!
#1324567875
0!
#1324581000
1!
#1324594125
0!
#1324607250
1!
#1324620375
0!
#1324633500
1!
#1324646625
0!
#1324659750
1!
#1324672875
0!
#1324686000
1!
#1324699125
0!
#1324712250
1!
#1324725375
0!
#1324738500
1!
#1324751625
0!
#1324764750
1!
#1324777875
0!
#1324791000
1!
#1324804125
0!
#1324817250
1!
#1324830375
0!
#1324843500
1!
#1324856625
0!
#1324869750
1!
#1324882875
0!
#1324896000
1!
#1324909125
0!
#1324922250
1!
#1324935375
0!
#1324948500
1!
#1324961625
0!
#1324974750
1!
#1324987875
0!
#1325001000
1!
#1325014125
0!
#1325027250
1!
#1325040375
0!
#1325053500
1!
#1325066625
0!
#1325079750
1!
#1325092875
0!
#1325106000
1!
#1325119125
0!
#1325132250
1!
#1325145375
0!
#1325158500
1!
#1325171625
0!
#1325184750
1!
#1325197875
0!
#1325211000
1!
#1325224125
0!
#1325237250
1!
#1325250375
0!
#1325263500
1!
#1325276625
0!
#1325289750
1!
#1325302875
0!
#1325316000
1!
#1325329125
0!
#1325342250
1!
#1325355375
0!
#1325368500
1!
#1325381625
0!
#1325394750
1!
#1325407875
0!
#1325421000
1!
#1325434125
0!
#1325447250
1!
#1325460375
0!
#1325473500
1!
#1325486625
0!
#1325499750
1!
#1325512875
0!
#1325526000
1!
#1325539125
0!
#1325552250
1!
#1325565375
0!
#1325578500
1!
#1325591625
0!
#1325604750
1!
#1325617875
0!
#1325631000
1!
#1325644125
0!
#1325657250
1!
#1325670375
0!
#1325683500
1!
#1325696625
0!
#1325709750
1!
#1325722875
0!
#1325736000
1!
#1325749125
0!
#1325762250
1!
#1325775375
0!
#1325788500
1!
#1325801625
0!
#1325814750
1!
#1325827875
0!
#1325841000
1!
#1325854125
0!
#1325867250
1!
#1325880375
0!
#1325893500
1!
#1325906625
0!
#1325919750
1!
#1325932875
0!
#1325946000
1!
#1325959125
0!
#1325972250
1!
#1325985375
0!
#1325998500
1!
#1326011625
0!
#1326024750
1!
#1326037875
0!
#1326051000
1!
#1326064125
0!
#1326077250
1!
#1326090375
0!
#1326103500
1!
#1326116625
0!
#1326129750
1!
#1326142875
0!
#1326156000
1!
#1326169125
0!
#1326182250
1!
#1326195375
0!
#1326208500
1!
#1326221625
0!
#1326234750
1!
#1326247875
0!
#1326261000
1!
#1326274125
0!
#1326287250
1!
#1326300375
0!
#1326313500
1!
#1326326625
0!
#1326339750
1!
#1326352875
0!
#1326366000
1!
#1326379125
0!
#1326392250
1!
#1326405375
0!
#1326418500
1!
#1326431625
0!
#1326444750
1!
#1326457875
0!
#1326471000
1!
#1326484125
0!
#1326497250
1!
#1326510375
0!
#1326523500
1!
#1326536625
0!
#1326549750
1!
#1326562875
0!
#1326576000
1!
#1326589125
0!
#1326602250
1!
#1326615375
0!
#1326628500
1!
#1326641625
0!
#1326654750
1!
#1326667875
0!
#1326681000
1!
#1326694125
0!
#1326707250
1!
#1326720375
0!
#1326733500
1!
#1326746625
0!
#1326759750
1!
#1326772875
0!
#1326786000
1!
#1326799125
0!
#1326812250
1!
#1326825375
0!
#1326838500
1!
#1326851625
0!
#1326864750
1!
#1326877875
0!
#1326891000
1!
#1326904125
0!
#1326917250
1!
#1326930375
0!
#1326943500
1!
#1326956625
0!
#1326969750
1!
#1326982875
0!
#1326996000
1!
#1327009125
0!
#1327022250
1!
#1327035375
0!
#1327048500
1!
#1327061625
0!
#1327074750
1!
#1327087875
0!
#1327101000
1!
#1327114125
0!
#1327127250
1!
#1327140375
0!
#1327153500
1!
#1327166625
0!
#1327179750
1!
#1327192875
0!
#1327206000
1!
#1327219125
0!
#1327232250
1!
#1327245375
0!
#1327258500
1!
#1327271625
0!
#1327284750
1!
#1327297875
0!
#1327311000
1!
#1327324125
0!
#1327337250
1!
#1327350375
0!
#1327363500
1!
#1327376625
0!
#1327389750
1!
#1327402875
0!
#1327416000
1!
#1327429125
0!
#1327442250
1!
#1327455375
0!
#1327468500
1!
#1327481625
0!
#1327494750
1!
#1327507875
0!
#1327521000
1!
#1327534125
0!
#1327547250
1!
#1327560375
0!
#1327573500
1!
#1327586625
0!
#1327599750
1!
#1327612875
0!
#1327626000
1!
#1327639125
0!
#1327652250
1!
#1327665375
0!
#1327678500
1!
#1327691625
0!
#1327704750
1!
#1327717875
0!
#1327731000
1!
#1327744125
0!
#1327757250
1!
#1327770375
0!
#1327783500
1!
#1327796625
0!
#1327809750
1!
#1327822875
0!
#1327836000
1!
#1327849125
0!
#1327862250
1!
#1327875375
0!
#1327888500
1!
#1327901625
0!
#1327914750
1!
#1327927875
0!
#1327941000
1!
#1327954125
0!
#1327967250
1!
#1327980375
0!
#1327993500
1!
#1328006625
0!
#1328019750
1!
#1328032875
0!
#1328046000
1!
#1328059125
0!
#1328072250
1!
#1328085375
0!
#1328098500
1!
#1328111625
0!
#1328124750
1!
#1328137875
0!
#1328151000
1!
#1328164125
0!
#1328177250
1!
#1328190375
0!
#1328203500
1!
#1328216625
0!
#1328229750
1!
#1328242875
0!
#1328256000
1!
#1328269125
0!
#1328282250
1!
#1328295375
0!
#1328308500
1!
#1328321625
0!
#1328334750
1!
#1328347875
0!
#1328361000
1!
#1328374125
0!
#1328387250
1!
#1328400375
0!
#1328413500
1!
#1328426625
0!
#1328439750
1!
#1328452875
0!
#1328466000
1!
#1328479125
0!
#1328492250
1!
#1328505375
0!
#1328518500
1!
#1328531625
0!
#1328544750
1!
#1328557875
0!
#1328571000
1!
#1328584125
0!
#1328597250
1!
#1328610375
0!
#1328623500
1!
#1328636625
0!
#1328649750
1!
#1328662875
0!
#1328676000
1!
#1328689125
0!
#1328702250
1!
#1328715375
0!
#1328728500
1!
#1328741625
0!
#1328754750
1!
#1328767875
0!
#1328781000
1!
#1328794125
0!
#1328807250
1!
#1328820375
0!
#1328833500
1!
#1328846625
0!
#1328859750
1!
#1328872875
0!
#1328886000
1!
#1328899125
0!
#1328912250
1!
#1328925375
0!
#1328938500
1!
#1328951625
0!
#1328964750
1!
#1328977875
0!
#1328991000
1!
#1329004125
0!
#1329017250
1!
#1329030375
0!
#1329043500
1!
#1329056625
0!
#1329069750
1!
#1329082875
0!
#1329096000
1!
#1329109125
0!
#1329122250
1!
#1329135375
0!
#1329148500
1!
#1329161625
0!
#1329174750
1!
#1329187875
0!
#1329201000
1!
#1329214125
0!
#1329227250
1!
#1329240375
0!
#1329253500
1!
#1329266625
0!
#1329279750
1!
#1329292875
0!
#1329306000
1!
#1329319125
0!
#1329332250
1!
#1329345375
0!
#1329358500
1!
#1329371625
0!
#1329384750
1!
#1329397875
0!
#1329411000
1!
#1329424125
0!
#1329437250
1!
#1329450375
0!
#1329463500
1!
#1329476625
0!
#1329489750
1!
#1329502875
0!
#1329516000
1!
#1329529125
0!
#1329542250
1!
#1329555375
0!
#1329568500
1!
#1329581625
0!
#1329594750
1!
#1329607875
0!
#1329621000
1!
#1329634125
0!
#1329647250
1!
#1329660375
0!
#1329673500
1!
#1329686625
0!
#1329699750
1!
#1329712875
0!
#1329726000
1!
#1329739125
0!
#1329752250
1!
#1329765375
0!
#1329778500
1!
#1329791625
0!
#1329804750
1!
#1329817875
0!
#1329831000
1!
#1329844125
0!
#1329857250
1!
#1329870375
0!
#1329883500
1!
#1329896625
0!
#1329909750
1!
#1329922875
0!
#1329936000
1!
#1329949125
0!
#1329962250
1!
#1329975375
0!
#1329988500
1!
#1330001625
0!
#1330014750
1!
#1330027875
0!
#1330041000
1!
#1330054125
0!
#1334569125
1!
#1334582250
0!
#1334595375
1!
#1334608500
0!
#1334621625
1!
#1334634750
0!
#1334647875
1!
#1334661000
0!
#1334674125
1!
#1334687250
0!
#1334700375
1!
#1334713500
0!
#1334726625
1!
#1334739750
0!
#1334752875
1!
#1334766000
0!
#1334779125
1!
#1334792250
0!
#1334805375
1!
#1334818500
0!
#1334831625
1!
#1334844750
0!
#1334857875
1!
#1334871000
0!
#1334884125
1!
#1334897250
0!
#1334910375
1!
#1334923500
0!
#1334936625
1!
#1334949750
0!
#1334962875
1!
#1334976000
0!
#1334989125
1!
#1335002250
0!
#1335015375
1!
#1335028500
0!
#1335041625
1!
#1335054750
0!
#1335067875
1!
#1335081000
0!
#1335094125
1!
#1335107250
0!
#1335684750
1!
#1335697875
0!
#1335711000
1!
#1335724125
0!
#1335737250
1!
#1335750375
0!
#1335763500
1!
#1335776625
0!
#1335789750
1!
#1335802875
0!
#1335816000
1!
#1335829125
0!
#1335842250
1!
#1335855375
0!
#1335868500
1!
#1335881625
0!
#1335894750
1!
#1335907875
0!
#1335921000
1!
#1335934125
0!
#1335947250
1!
#1335960375
0!
#1335973500
1!
#1335986625
0!
#1335999750
1!
#1336012875
0!
#1336026000
1!
#1336039125
0!
#1336052250
1!
#1336065375
0!
#1336078500
1!
#1336091625
0!
#1336104750
1!
#1336117875
0!
#1336131000
1!
#1336144125
0!
#1336157250
1!
#1336170375
0!
#1336183500
1!
#1336196625
0!
#1336209750
1!
#1336222875
0!
#1336236000
1!
#1336241750
0!
#1336813500
1!
#1336826625
0!
#1336839750
1!
#1336852875
0!
#1336866000
1!
#1336879125
0!
#1336892250
1!
#1336905375
0!
#1336918500
1!
#1336931625
0!
#1336944750
1!
#1336957875
0!
#1336971000
1!
#1336984125
0!
#1336997250
1!
#1337010375
0!
#1337023500
1!
#1337036625
0!
#1337049750
1!
#1337062875
0!
#1337076000
1!
#1337089125
0!
#1337102250
1!
#1337115375
0!
#1337128500
1!
#1337141625
0!
#1337154750
1!
#1337167875
0!
#1337181000
1!
#1337194125
0!
#1337207250
1!
#1337220375
0!
#1337233500
1!
#1337246625
0!
#1337259750
1!
#1337272875
0!
#1337286000
1!
#1337299125
0!
#1337312250
1!
#1337325375
0!
#1337338500
1!
#1337351625
0!
#1337364750
1!
#1337366812
0!
#1337942250
1!
#1337955375
0!
#1337968500
1!
#1337981625
0!
#1337994750
1!
#1338007875
0!
#1338021000
1!
#1338034125
0!
#1338047250
1!
#1338060375
0!
#1338073500
1!
#1338086625
0!
#1338099750
1!
#1338112875
0!
#1338126000
1!
#1338139125
0!
#1338152250
1!
#1338165375
0!
#1338178500
1!
#1338191625
0!
#1338204750
1!
#1338217875
0!
#1338231000
1!
#1338244125
0!
#1338257250
1!
#1338270375
0!
#1338283500
1!
#1338296625
0!
#1338309750
1!
#1338322875
0!
#1338336000
1!
#1338349125
0!
#1338362250
1!
#1338375375
0!
#1338388500
1!
#1338401625
0!
#1338414750
1!
#1338427875
0!
#1338441000
1!
#1338454125
0!
#1338467250
1!
#1338480375
0!
#1339071000
1!
#1339084125
0!
#1339097250
1!
#1339110375
0!
#1339123500
1!
#1339136625
0!
#1339149750
1!
#1339162875
0!
#1339176000
1!
#1339189125
0!
#1339202250
1!
#1339215375
0!
#1339228500
1!
#1339241625
0!
#1339254750
1!
#1339267875
0!
#1339281000
1!
#1339294125
0!
#1339307250
1!
#1339320375
0!
#1339333500
1!
#1339346625
0!
#1339359750
1!
#1339372875
0!
#1339386000
1!
#1339399125
0!
#1339412250
1!
#1339425375
0!
#1339438500
1!
#1339451625
0!
#1339464750
1!
#1339477875
0!
#1339491000
1!
#1339504125
0!
#1339517250
1!
#1339530375
0!
#1339543500
1!
#1339556625
0!
#1339569750
1!
#1339582875
0!
#1339596000
1!
#1339609125
0!
#1340186625
1!
#1340199750
0!
#1340212875
1!
#1340226000
0!
#1340239125
1!
#1340252250
0!
#1340265375
1!
#1340278500
0!
#1340291625
1!
#1340304750
0!
#1340317875
1!
#1340331000
0!
#1340344125
1!
#1340357250
0!
#1340370375
1!
#1340383500
0!
#1340396625
1!
#1340409750
0!
#1340422875
1!
#1340436000
0!
#1340449125
1!
#1340462250
0!
#1340475375
1!
#1340488500
0!
#1340501625
1!
#1340514750
0!
#1340527875
1!
#1340541000
0!
#1340554125
1!
#1340567250
0!
#1340580375
1!
#1340593500
0!
#1340606625
1!
#1340619750
0!
#1340632875
1!
#1340646000
0!
#1340659125
1!
#1340672250
0!
#1340685375
1!
#1340698500
0!
#1340711625
1!
#1340724750
0!
#1340737875
1!
#1340741812
0!
#1341315375
1!
#1341328500
0!
#1341341625
1!
#1341354750
0!
#1341367875
1!
#1341381000
0!
#1341394125
1!
#1341407250
0!
#1341420375
1!
#1341433500
0!
#1341446625
1!
#1341459750
0!
#1341472875
1!
#1341486000
0!
#1341499125
1!
#1341512250
0!
#1341525375
1!
#1341538500
0!
#1341551625
1!
#1341564750
0!
#1341577875
1!
#1341591000
0!
#1341604125
1!
#1341617250
0!
#1341630375
1!
#1341643500
0!
#1341656625
1!
#1341669750
0!
#1341682875
1!
#1341696000
0!
#1341709125
1!
#1341722250
0!
#1341735375
1!
#1341748500
0!
#1341761625
1!
#1341774750
0!
#1341787875
1!
#1341801000
0!
#1341814125
1!
#1341827250
0!
#1341840375
1!
#1341853500
0!
#1341866625
1!
#1341866750
0!
#1342444125
1!
#1342457250
0!
#1342470375
1!
#1342483500
0!
#1342496625
1!
#1342509750
0!
#1342522875
1!
#1342536000
0!
#1342549125
1!
#1342562250
0!
#1342575375
1!
#1342588500
0!
#1342601625
1!
#1342614750
0!
#1342627875
1!
#1342641000
0!
#1342654125
1!
#1342667250
0!
#1342680375
1!
#1342693500
0!
#1342706625
1!
#1342719750
0!
#1342732875
1!
#1342746000
0!
#1342759125
1!
#1342772250
0!
#1342785375
1!
#1342798500
0!
#1342811625
1!
#1342824750
0!
#1342837875
1!
#1342851000
0!
#1342864125
1!
#1342877250
0!
#1342890375
1!
#1342903500
0!
#1342916625
1!
#1342929750
0!
#1342942875
1!
#1342956000
0!
#1342969125
1!
#1342982250
0!
#1343572875
1!
#1343586000
0!
#1343599125
1!
#1343612250
0!
#1343625375
1!
#1343638500
0!
#1343651625
1!
#1343664750
0!
#1343677875
1!
#1343691000
0!
#1343704125
1!
#1343717250
0!
#1343730375
1!
#1343743500
0!
#1343756625
1!
#1343769750
0!
#1343782875
1!
#1343796000
0!
#1343809125
1!
#1343822250
0!
#1343835375
1!
#1343848500
0!
#1343861625
1!
#1343874750
0!
#1343887875
1!
#1343901000
0!
#1343914125
1!
#1343927250
0!
#1343940375
1!
#1343953500
0!
#1343966625
1!
#1343979750
0!
#1343992875
1!
#1344006000
0!
#1344019125
1!
#1344032250
0!
#1344045375
1!
#1344058500
0!
#1344071625
1!
#1344084750
0!
#1344097875
1!
#1344111000
0!
#1345817250
1!
#1345830375
0!
#1345843500
1!
#1345856625
0!
#1345869750
1!
#1345882875
0!
#1345896000
1!
#1345909125
0!
#1345922250
1!
#1345935375
0!
#1345948500
1!
#1345961625
0!
#1345974750
1!
#1345987875
0!
#1346001000
1!
#1346014125
0!
#1346027250
1!
#1346040375
0!
#1346053500
1!
#1346066625
0!
#1346079750
1!
#1346092875
0!
#1346106000
1!
#1346119125
0!
#1346132250
1!
#1346145375
0!
#1346158500
1!
#1346171625
0!
#1346184750
1!
#1346197875
0!
#1346211000
1!
#1346224125
0!
#1346237250
1!
#1346250375
0!
#1346263500
1!
#1346276625
0!
#1346289750
1!
#1346302875
0!
#1346316000
1!
#1346329125
0!
#1346342250
1!
#1346355375
0!
#1348061625
1!
#1348074750
0!
#1348087875
1!
#1348101000
0!
#1348114125
1!
#1348127250
0!
#1348140375
1!
#1348153500
0!
#1348166625
1!
#1348179750
0!
#1348192875
1!
#1348206000
0!
#1348219125
1!
#1348232250
0!
#1348245375
1!
#1348258500
0!
#1348271625
1!
#1348284750
0!
#1348297875
1!
#1348311000
0!
#1348324125
1!
#1348337250
0!
#1348350375
1!
#1348363500
0!
#1348376625
1!
#1348389750
0!
#1348402875
1!
#1348416000
0!
#1348429125
1!
#1348442250
0!
#1348455375
1!
#1348468500
0!
#1348481625
1!
#1348494750
0!
#1348507875
1!
#1348521000
0!
#1348534125
1!
#1348547250
0!
#1348560375
1!
#1348573500
0!
#1348586625
1!
#1348599750
0!
#1348612875
1!
#1348616812
0!
#1350319125
1!
#1350332250
0!
#1350345375
1!
#1350358500
0!
#1350371625
1!
#1350384750
0!
#1350397875
1!
#1350411000
0!
#1350424125
1!
#1350437250
0!
#1350450375
1!
#1350463500
0!
#1350476625
1!
#1350489750
0!
#1350502875
1!
#1350516000
0!
#1350529125
1!
#1350542250
0!
#1350555375
1!
#1350568500
0!
#1350581625
1!
#1350594750
0!
#1350607875
1!
#1350621000
0!
#1350634125
1!
#1350647250
0!
#1350660375
1!
#1350673500
0!
#1350686625
1!
#1350699750
0!
#1350712875
1!
#1350726000
0!
#1350739125
1!
#1350752250
0!
#1350765375
1!
#1350778500
0!
#1350791625
1!
#1350804750
0!
#1350817875
1!
#1350831000
0!
#1350844125
1!
#1350857250
0!
#1352563500
1!
#1352576625
0!
#1352589750
1!
#1352602875
0!
#1352616000
1!
#1352629125
0!
#1352642250
1!
#1352655375
0!
#1352668500
1!
#1352681625
0!
#1352694750
1!
#1352707875
0!
#1352721000
1!
#1352734125
0!
#1352747250
1!
#1352760375
0!
#1352773500
1!
#1352786625
0!
#1352799750
1!
#1352812875
0!
#1352826000
1!
#1352839125
0!
#1352852250
1!
#1352865375
0!
#1352878500
1!
#1352891625
0!
#1352904750
1!
#1352917875
0!
#1352931000
1!
#1352944125
0!
#1352957250
1!
#1352970375
0!
#1352983500
1!
#1352996625
0!
#1353009750
1!
#1353022875
0!
#1353036000
1!
#1353049125
0!
#1353062250
1!
#1353075375
0!
#1353088500
1!
#1353101625
0!
#1353114750
1!
#1353116812
0!
#1354821000
1!
#1354834125
0!
#1354847250
1!
#1354860375
0!
#1354873500
1!
#1354886625
0!
#1354899750
1!
#1354912875
0!
#1354926000
1!
#1354939125
0!
#1354952250
1!
#1354965375
0!
#1354978500
1!
#1354991625
0!
#1355004750
1!
#1355017875
0!
#1355031000
1!
#1355044125
0!
#1355057250
1!
#1355070375
0!
#1355083500
1!
#1355096625
0!
#1355109750
1!
#1355122875
0!
#1355136000
1!
#1355149125
0!
#1355162250
1!
#1355175375
0!
#1355188500
1!
#1355201625
0!
#1355214750
1!
#1355227875
0!
#1355241000
1!
#1355254125
0!
#1355267250
1!
#1355280375
0!
#1355293500
1!
#1355306625
0!
#1355319750
1!
#1355332875
0!
#1355346000
1!
#1355359125
0!
#1357065375
1!
#1357078500
0!
#1357091625
1!
#1357104750
0!
#1357117875
1!
#1357131000
0!
#1357144125
1!
#1357157250
0!
#1357170375
1!
#1357183500
0!
#1357196625
1!
#1357209750
0!
#1357222875
1!
#1357236000
0!
#1357249125
1!
#1357262250
0!
#1357275375
1!
#1357288500
0!
#1357301625
1!
#1357314750
0!
#1357327875
1!
#1357341000
0!
#1357354125
1!
#1357367250
0!
#1357380375
1!
#1357393500
0!
#1357406625
1!
#1357419750
0!
#1357432875
1!
#1357446000
0!
#1357459125
1!
#1357472250
0!
#1357485375
1!
#1357498500
0!
#1357511625
1!
#1357524750
0!
#1357537875
1!
#1357551000
0!
#1357564125
1!
#1357577250
0!
#1357590375
1!
#1357603500
0!
#1357616625
1!
#1357616750
0!
#1359322875
1!
#1359336000
0!
#1359349125
1!
#1359362250
0!
#1359375375
1!
#1359388500
0!
#1359401625
1!
#1359414750
0!
#1359427875
1!
#1359441000
0!
#1359454125
1!
#1359467250
0!
#1359480375
1!
#1359493500
0!
#1359506625
1!
#1359519750
0!
#1359532875
1!
#1359546000
0!
#1359559125
1!
#1359572250
0!
#1359585375
1!
#1359598500
0!
#1359611625
1!
#1359624750
0!
#1359637875
1!
#1359651000
0!
#1359664125
1!
#1359677250
0!
#1359690375
1!
#1359703500
0!
#1359716625
1!
#1359729750
0!
#1359742875
1!
#1359756000
0!
#1359769125
1!
#1359782250
0!
#1359795375
1!
#1359808500
0!
#1359821625
1!
#1359834750
0!
#1359847875
1!
#1359861000
0!
#1361567250
1!
#1361580375
0!
#1361593500
1!
#1361606625
0!
#1361619750
1!
#1361632875
0!
#1361646000
1!
#1361659125
0!
#1361672250
1!
#1361685375
0!
#1361698500
1!
#1361711625
0!
#1361724750
1!
#1361737875
0!
#1361751000
1!
#1361764125
0!
#1361777250
1!
#1361790375
0!
#1361803500
1!
#1361816625
0!
#1361829750
1!
#1361842875
0!
#1361856000
1!
#1361869125
0!
#1361882250
1!
#1361895375
0!
#1361908500
1!
#1361921625
0!
#1361934750
1!
#1361947875
0!
#1361961000
1!
#1361974125
0!
#1361987250
1!
#1362000375
0!
#1362013500
1!
#1362026625
0!
#1362039750
1!
#1362052875
0!
#1362066000
1!
#1362079125
0!
#1362092250
1!
#1362105375
0!
#1362696000
1!
#1362709125
0!
#1362722250
1!
#1362735375
0!
#1362748500
1!
#1362761625
0!
#1362774750
1!
#1362787875
0!
#1362801000
1!
#1362814125
0!
#1362827250
1!
#1362840375
0!
#1362853500
1!
#1362866625
0!
#1362879750
1!
#1362892875
0!
#1362906000
1!
#1362919125
0!
#1362932250
1!
#1362945375
0!
#1362958500
1!
#1362971625
0!
#1362984750
1!
#1362997875
0!
#1363011000
1!
#1363024125
0!
#1363037250
1!
#1363050375
0!
#1363063500
1!
#1363076625
0!
#1363089750
1!
#1363102875
0!
#1363116000
1!
#1363129125
0!
#1363142250
1!
#1363155375
0!
#1363168500
1!
#1363181625
0!
#1363194750
1!
#1363207875
0!
#1363221000
1!
#1363234125
0!
#1363811625
1!
#1363824750
0!
#1363837875
1!
#1363851000
0!
#1363864125
1!
#1363877250
0!
#1363890375
1!
#1363903500
0!
#1363916625
1!
#1363929750
0!
#1363942875
1!
#1363956000
0!
#1363969125
1!
#1363982250
0!
#1363995375
1!
#1364008500
0!
#1364021625
1!
#1364034750
0!
#1364047875
1!
#1364061000
0!
#1364074125
1!
#1364087250
0!
#1364100375
1!
#1364113500
0!
#1364126625
1!
#1364139750
0!
#1364152875
1!
#1364166000
0!
#1364179125
1!
#1364192250
0!
#1364205375
1!
#1364218500
0!
#1364231625
1!
#1364244750
0!
#1364257875
1!
#1364271000
0!
#1364284125
1!
#1364297250
0!
#1364310375
1!
#1364323500
0!
#1364336625
1!
#1364349750
0!
#1364362875
1!
#1364366812
0!
#1364940375
1!
#1364953500
0!
#1364966625
1!
#1364979750
0!
#1364992875
1!
#1365006000
0!
#1365019125
1!
#1365032250
0!
#1365045375
1!
#1365058500
0!
#1365071625
1!
#1365084750
0!
#1365097875
1!
#1365111000
0!
#1365124125
1!
#1365137250
0!
#1365150375
1!
#1365163500
0!
#1365176625
1!
#1365189750
0!
#1365202875
1!
#1365216000
0!
#1365229125
1!
#1365242250
0!
#1365255375
1!
#1365268500
0!
#1365281625
1!
#1365294750
0!
#1365307875
1!
#1365321000
0!
#1365334125
1!
#1365347250
0!
#1365360375
1!
#1365373500
0!
#1365386625
1!
#1365399750
0!
#1365412875
1!
#1365426000
0!
#1365439125
1!
#1365452250
0!
#1365465375
1!
#1365478500
0!
#1365491625
1!
#1365491750
0!
#1366069125
1!
#1366082250
0!
#1366095375
1!
#1366108500
0!
#1366121625
1!
#1366134750
0!
#1366147875
1!
#1366161000
0!
#1366174125
1!
#1366187250
0!
#1366200375
1!
#1366213500
0!
#1366226625
1!
#1366239750
0!
#1366252875
1!
#1366266000
0!
#1366279125
1!
#1366292250
0!
#1366305375
1!
#1366318500
0!
#1366331625
1!
#1366344750
0!
#1366357875
1!
#1366371000
0!
#1366384125
1!
#1366397250
0!
#1366410375
1!
#1366423500
0!
#1366436625
1!
#1366449750
0!
#1366462875
1!
#1366476000
0!
#1366489125
1!
#1366502250
0!
#1366515375
1!
#1366528500
0!
#1366541625
1!
#1366554750
0!
#1366567875
1!
#1366581000
0!
#1366594125
1!
#1366607250
0!
#1368313500
1!
#1368326625
0!
#1368339750
1!
#1368352875
0!
#1368366000
1!
#1368379125
0!
#1368392250
1!
#1368405375
0!
#1368418500
1!
#1368431625
0!
#1368444750
1!
#1368457875
0!
#1368471000
1!
#1368484125
0!
#1368497250
1!
#1368510375
0!
#1368523500
1!
#1368536625
0!
#1368549750
1!
#1368562875
0!
#1368576000
1!
#1368589125
0!
#1368602250
1!
#1368615375
0!
#1368628500
1!
#1368641625
0!
#1368654750
1!
#1368667875
0!
#1368681000
1!
#1368694125
0!
#1368707250
1!
#1368720375
0!
#1368733500
1!
#1368746625
0!
#1368759750
1!
#1368772875
0!
#1368786000
1!
#1368799125
0!
#1368812250
1!
#1368825375
0!
#1368838500
1!
#1368851625
0!
#1368864750
1!
#1368866812
0!
#1370571000
1!
#1370584125
0!
#1370597250
1!
#1370610375
0!
#1370623500
1!
#1370636625
0!
#1370649750
1!
#1370662875
0!
#1370676000
1!
#1370689125
0!
#1370702250
1!
#1370715375
0!
#1370728500
1!
#1370741625
0!
#1370754750
1!
#1370767875
0!
#1370781000
1!
#1370794125
0!
#1370807250
1!
#1370820375
0!
#1370833500
1!
#1370846625
0!
