File LogicAnalyzer/NecCode.vcd
$version Generated by Wokwi.com $end
$date Wed, 30 Aug 2023 15:37:56 GMT $end
$timescale 1ns $end
$scope module logic $end
$var wire 1 ! D0 $end
$upscope $end
$enddefinitions $end
#0
0!
#1689076561
1!
#1689076562
0!
#1689089687
1!
#1689102812
0!
#1689115937
1!
#1689129062
0!
#1689142187
1!
#1689155312
0!
#1689168437
1!
#1689181562
0!
#1689194687
1!
#1689207812
0!
#1689220937
1!
#1689234062
0!
#1689247187
1!
#1689260312
0!
#1689273437
1!
#1689286562
0!
#1689299687
1!
#1689312812
0!
#1689325937
1!
#1689339062
0!
#1689352187
1!
#1689365312
0!
#1689378437
1!
#1689391562
0!
#1689404687
1!
#1689417812
0!
#1689430937
1!
#1689444062
0!
#1689457187
1!
#1689470312
0!
#1689483437
1!
#1689496562
0!
#1689509687
1!
#1689522812
0!
#1689535937
1!
#1689549062
0!
#1689562187
1!
#1689575312
0!
#1689588437
1!
#1689601562
0!
#1689614687
1!
#1689627812
0!
#1689640937
1!
#1689654062
0!
#1689667187
1!
#1689680312
0!
#1689693437
1!
#1689706562
0!
#1689719687
1!
#1689732812
0!
#1689745937
1!
#1689759062
0!
#1689772187
1!
#1689785312
0!
#1689798437
1!
#1689811562
0!
#1689824687
1!
#1689837812
0!
#1689850937
1!
#1689864062
0!
#1689877187
1!
#1689890312
0!
#1689903437
1!
#1689916562
0!
#1689929687
1!
#1689942812
0!
#1689955937
1!
#1689969062
0!
#1689982187
1!
#1689995312
0!
#1690008437
1!
#1690021562
0!
#1690034687
1!
#1690047812
0!
#1690060937
1!
#1690074062
0!
#1690087187
1!
#1690100312
0!
#1690113437
1!
#1690126562
0!
#1690139687
1!
#1690152812
0!
#1690165937
1!
#1690179062
0!
#1690192187
1!
#1690205312
0!
#1690218437
1!
#1690231562
0!
#1690244687
1!
#1690257812
0!
#1690270937
1!
#1690284062
0!
#1690297187
1!
#1690310312
0!
#1690323437
1!
#1690336562
0!
#1690349687
1!
#1690362812
0!
#1690375937
1!
#1690389062
0!
#1690402187
1!
#1690415312
0!
#1690428437
1!
#1690441562
0!
#1690454687
1!
#1690467812
0!
#1690480937
1!
#1690494062
0!
#1690507187
1!
#1690520312
0!
#1690533437
1!
#1690546562
0!
#1690559687
1!
#1690572812
0!
#1690585937
1!
#1690599062
0!
#1690612187
1!
#1690625312
0!
#1690638437
1!
#1690651562
0!
#1690664687
1!
#1690677812
0!
#1690690937
1!
#1690704062
0!
#1690717187
1!
#1690730312
0!
#1690743437
1!
#1690756562
0!
#1690769687
1!
#1690782812
0!
#1690795937
1!
#1690809062
0!
#1690822187
1!
#1690835312
0!
#1690848437
1!
#1690861562
0!
#1690874687
1!
#1690887812
0!
#1690900937
1!
#1690914062
0!
#1690927187
1!
#1690940312
0!
#1690953437
1!
#1690966562
0!
#1690979687
1!
#1690992812
0!
#1691005937
1!
#1691019062
0!
#1691032187
1!
#1691045312
0!
#1691058437
1!
#1691071562
0!
#1691084687
1!
#1691097812
0!
#1691110937
1!
#1691124062
0!
#1691137187
1!
#1691150312
0!
#1691163437
1!
#1691176562
0!
#1691189687
1!
#1691202812
0!
#1691215937
1!
#1691229062
0!
#1691242187
1!
#1691255312
0!
#1691268437
1!
#1691281562
0!
#1691294687
1!
#1691307812
0!
#1691320937
1!
#1691334062
0!
#1691347187
1!
#1691360312
0!
#1691373437
1!
#1691386562
0!
#1691399687
1!
#1691412812
0!
#1691425937
1!
#1691439062
0!
#1691452187
1!
#1691465312
0!
#1691478437
1!
#1691491562
0!
#1691504687
1!
#1691517812
0!
#1691530937
1!
#1691544062
0!
#1691557187
1!
#1691570312
0!
#1691583437
1!
#1691596562
0!
#1691609687
1!
#1691622812
0!
#1691635937
1!
#1691649062
0!
#1691662187
1!
#1691675312
0!
#1691688437
1!
#1691701562
0!
#1691714687
1!
#1691727812
0!
#1691740937
1!
#1691754062
0!
#1691767187
1!
#1691780312
0!
#1691793437
1!
#1691806562
0!
#1691819687
1!
#1691832812
0!
#1691845937
1!
#1691859062
0!
#1691872187
1!
#1691885312
0!
#1691898437
1!
#1691911562
0!
#1691924687
1!
#1691937812
0!
#1691950937
1!
#1691964062
0!
#1691977187
1!
#1691990312
0!
#1692003437
1!
#1692016562
0!
#1692029687
1!
#1692042812
0!
#1692055937
1!
#1692069062
0!
#1692082187
1!
#1692095312
0!
#1692108437
1!
#1692121562
0!
#1692134687
1!
#1692147812
0!
#1692160937
1!
#1692174062
0!
#1692187187
1!
#1692200312
0!
#1692213437
1!
#1692226562
0!
#1692239687
1!
#1692252812
0!
#1692265937
1!
#1692279062
0!
#1692292187
1!
#1692305312
0!
#1692318437
1!
#1692331562
0!
#1692344687
1!
#1692357812
0!
#1692370937
1!
#1692384062
0!
#1692397187
1!
#1692410312
0!
#1692423437
1!
#1692436562
0!
#1692449687
1!
#1692462812
0!
#1692475937
1!
#1692489062
0!
#1692502187
1!
#1692515312
0!
#1692528437
1!
#1692541562
0!
#1692554687
1!
#1692567812
0!
#1692580937
1!
#1692594062
0!
#1692607187
1!
#1692620312
0!
#1692633437
1!
#1692646562
0!
#1692659687
1!
#1692672812
0!
#1692685937
1!
#1692699062
0!
#1692712187
1!
#1692725312
0!
#1692738437
1!
#1692751562
0!
#1692764687
1!
#1692777812
0!
#1692790937
1!
#1692804062
0!
#1692817187
1!
#1692830312
0!
#1692843437
1!
#1692856562
0!
#1692869687
1!
#1692882812
0!
#1692895937
1!
#1692909062
0!
#1692922187
1!
#1692935312
0!
#1692948437
1!
#1692961562
0!
#1692974687
1!
#1692987812
0!
#1693000937
1!
#1693014062
0!
#1693027187
1!
#1693040312
0!
#1693053437
1!
#1693066562
0!
#1693079687
1!
#1693092812
0!
#1693105937
1!
#1693119062
0!
#1693132187
1!
#1693145312
0!
#1693158437
1!
#1693171562
0!
#1693184687
1!
#1693197812
0!
#1693210937
1!
#1693224062
0!
#1693237187
1!
#1693250312
0!
#1693263437
1!
#1693276562
0!
#1693289687
1!
#1693302812
0!
#1693315937
1!
#1693329062
0!
#1693342187
1!
#1693355312
0!
#1693368437
1!
#1693381562
0!
#1693394687
1!
#1693407812
0!
#1693420937
1!
#1693434062
0!
#1693447187
1!
#1693460312
0!
#1693473437
1!
#1693486562
0!
#1693499687
1!
#1693512812
0!
#1693525937
1!
#1693539062
0!
#1693552187
1!
#1693565312
0!
#1693578437
1!
#1693591562
0!
#1693604687
1!
#1693617812
0!
#1693630937
1!
#1693644062
0!
#1693657187
1!
#1693670312
0!
#1693683437
1!
#1693696562
0!
#1693709687
1!
#1693722812
0!
#1693735937
1!
#1693749062
0!
#1693762187
1!
#1693775312
0!
#1693788437
1!
#1693801562
0!
#1693814687
1!
#1693827812
0!
#1693840937
1!
#1693854062
0!
#1693867187
1!
#1693880312
0!
#1693893437
1!
#1693906562
0!
#1693919687
1!
#1693932812
0!
#1693945937
1!
#1693959062
0!
#1693972187
1!
#1693985312
0!
#1693998437
1!
#1694011562
0!
#1694024687
1!
#1694037812
0!
#1694050937
1!
#1694064062
0!
#1694077187
1!
#1694090312
0!
#1694103437
1!
#1694116562
0!
#1694129687
1!
#1694142812
0!
#1694155937
1!
#1694169062
0!
#1694182187
1!
#1694195312
0!
#1694208437
1!
#1694221562
0!
#1694234687
1!
#1694247812
0!
#1694260937
1!
#1694274062
0!
#1694287187
1!
#1694300312
0!
#1694313437
1!
#1694326562
0!
#1694339687
1!
#1694352812
0!
#1694365937
1!
#1694379062
0!
#1694392187
1!
#1694405312
0!
#1694418437
1!
#1694431562
0!
#1694444687
1!
#1694457812
0!
#1694470937
1!
#1694484062
0!
#1694497187
1!
#1694510312
0!
#1694523437
1!
#1694536562
0!
#1694549687
1!
#1694562812
0!
#1694575937
1!
#1694589062
0!
#1694602187
1!
#1694615312
0!
#1694628437
1!
#1694641562
0!
#1694654687
1!
#1694667812
0!
#1694680937
1!
#1694694062
0!
#1694707187
1!
#1694720312
0!
#1694733437
1!
#1694746562
0!
#1694759687
1!
#1694772812
0!
#1694785937
1!
#1694799062
0!
#1694812187
1!
#1694825312
0!
#1694838437
1!
#1694851562
0!
#1694864687
1!
#1694877812
0!
#1694890937
1!
#1694904062
0!
#1694917187
1!
#1694930312
0!
#1694943437
1!
#1694956562
0!
#1694969687
1!
#1694982812
0!
#1694995937
1!
#1695009062
0!
#1695022187
1!
#1695035312
0!
#1695048437
1!
#1695061562
0!
#1695074687
1!
#1695087812
0!
#1695100937
1!
#1695114062
0!
#1695127187
1!
#1695140312
0!
#1695153437
1!
#1695166562
0!
#1695179687
1!
#1695192812
0!
#1695205937
1!
#1695219062
0!
#1695232187
1!
#1695245312
0!
#1695258437
1!
#1695271562
0!
#1695284687
1!
#1695297812
0!
#1695310937
1!
#1695324062
0!
#1695337187
1!
#1695350312
0!
#1695363437
1!
#1695376562
0!
#1695389687
1!
#1695402812
0!
#1695415937
1!
#1695429062
0!
#1695442187
1!
#1695455312
0!
#1695468437
1!
#1695481562
0!
#1695494687
1!
#1695507812
0!
#1695520937
1!
#1695534062
0!
#1695547187
1!
#1695560312
0!
#1695573437
1!
#1695586562
0!
#1695599687
1!
#1695612812
0!
#1695625937
1!
#1695639062
0!
#1695652187
1!
#1695665312
0!
#1695678437
1!
#1695691562
0!
#1695704687
1!
#1695717812
0!
#1695730937
1!
#1695744062
0!
#1695757187
1!
#1695770312
0!
#1695783437
1!
#1695796562
0!
#1695809687
1!
#1695822812
0!
#1695835937
1!
#1695849062
0!
#1695862187
1!
#1695875312
0!
#1695888437
1!
#1695901562
0!
#1695914687
1!
#1695927812
0!
#1695940937
1!
#1695954062
0!
#1695967187
1!
#1695980312
0!
#1695993437
1!
#1696006562
0!
#1696019687
1!
#1696032812
0!
#1696045937
1!
#1696059062
0!
#1696072187
1!
#1696085312
0!
#1696098437
1!
#1696111562
0!
#1696124687
1!
#1696137812
0!
#1696150937
1!
#1696164062
0!
#1696177187
1!
#1696190312
0!
#1696203437
1!
#1696216562
0!
#1696229687
1!
#1696242812
0!
#1696255937
1!
#1696269062
0!
#1696282187
1!
#1696295312
0!
#1696308437
1!
#1696321562
0!
#1696334687
1!
#1696347812
0!
#1696360937
1!
#1696374062
0!
#1696387187
1!
#1696400312
0!
#1696413437
1!
#1696426562
0!
#1696439687
1!
#1696452812
0!
#1696465937
1!
#1696479062
0!
#1696492187
1!
#1696505312
0!
#1696518437
1!
#1696531562
0!
#1696544687
1!
#1696557812
0!
#1696570937
1!
#1696584062
0!
#1696597187
1!
#1696610312
0!
#1696623437
1!
#1696636562
0!
#1696649687
1!
#1696662812
0!
#1696675937
1!
#1696689062
0!
#1696702187
1!
#1696715312
0!
#1696728437
1!
#1696741562
0!
#1696754687
1!
#1696767812
0!
#1696780937
1!
#1696794062
0!
#1696807187
1!
#1696820312
0!
#1696833437
1!
#1696846562
0!
#1696859687
1!
#1696872812
0!
#1696885937
1!
#1696899062
0!
#1696912187
1!
#1696925312
0!
#1696938437
1!
#1696951562
0!
#1696964687
1!
#1696977812
0!
#1696990937
1!
#1697004062
0!
#1697017187
1!
#1697030312
0!
#1697043437
1!
#1697056562
0!
#1697069687
1!
#1697082812
0!
#1697095937
1!
#1697109062
0!
#1697122187
1!
#1697135312
0!
#1697148437
1!
#1697161562
0!
#1697174687
1!
#1697187812
0!
#1697200937
1!
#1697214062
0!
#1697227187
1!
#1697240312
0!
#1697253437
1!
#1697266562
0!
#1697279687
1!
#1697292812
0!
#1697305937
1!
#1697319062
0!
#1697332187
1!
#1697345312
0!
#1697358437
1!
#1697371562
0!
#1697384687
1!
#1697397812
0!
#1697410937
1!
#1697424062
0!
#1697437187
1!
#1697450312
0!
#1697463437
1!
#1697476562
0!
#1697489687
1!
#1697502812
0!
#1697515937
1!
#1697529062
0!
#1697542187
1!
#1697555312
0!
#1697568437
1!
#1697581562
0!
#1697594687
1!
#1697607812
0!
#1697620937
1!
#1697634062
0!
#1697647187
1!
#1697660312
0!
#1697673437
1!
#1697686562
0!
#1697699687
1!
#1697712812
0!
#1697725937
1!
#1697739062
0!
#1697752187
1!
#1697765312
0!
#1697778437
1!
#1697791562
0!
#1697804687
1!
#1697817812
0!
#1697830937
1!
#1697844062
0!
#1697857187
1!
#1697870312
0!
#1697883437
1!
#1697896562
0!
#1697909687
1!
#1697922812
0!
#1697935937
1!
#1697949062
0!
#1697962187
1!
#1697975312
0!
#1697988437
1!
#1698001562
0!
#1698014687
1!
#1698027812
0!
#1698040937
1!
#1698054062
0!
#1702569062
1!
#1702582187
0!
#1702595312
1!
#1702608437
0!
#1702621562
1!
#1702634687
0!
#1702647812
1!
#1702660937
0!
#1702674062
1!
#1702687187
0!
#1702700312
1!
#1702713437
0!
#1702726562
1!
#1702739687
0!
#1702752812
1!
#1702765937
0!
#1702779062
1!
#1702792187
0!
#1702805312
1!
#1702818437
0!
#1702831562
1!
#1702844687
0!
#1702857812
1!
#1702870937
0!
#1702884062
1!
#1702897187
0!
#1702910312
1!
#1702923437
0!
#1702936562
1!
#1702949687
0!
#1702962812
1!
#1702975937
0!
#1702989062
1!
#1703002187
0!
#1703015312
1!
#1703028437
0!
#1703041562
1!
#1703054687
0!
#1703067812
1!
#1703080937
0!
#1703094062
1!
#1703107187
0!
#1703684687
1!
#1703697812
0!
#1703710937
1!
#1703724062
0!
#1703737187
1!
#1703750312
0!
#1703763437
1!
#1703776562
0!
#1703789687
1!
#1703802812
0!
#1703815937
1!
#1703829062
0!
#1703842187
1!
#1703855312
0!
#1703868437
1!
#1703881562
0!
#1703894687
1!
#1703907812
0!
#1703920937
1!
#1703934062
0!
#1703947187
1!
#1703960312
0!
#1703973437
1!
#1703986562
0!
#1703999687
1!
#1704012812
0!
#1704025937
1!
#1704039062
0!
#1704052187
1!
#1704065312
0!
#1704078437
1!
#1704091562
0!
#1704104687
1!
#1704117812
0!
#1704130937
1!
#1704144062
0!
#1704157187
1!
#1704170312
0!
#1704183437
1!
#1704196562
0!
#1704209687
1!
#1704222812
0!
#1704235937
1!
#1704241687
0!
#1704813437
1!
#1704826562
0!
#1704839687
1!
#1704852812
0!
#1704865937
1!
#1704879062
0!
#1704892187
1!
#1704905312
0!
#1704918437
1!
#1704931562
0!
#1704944687
1!
#1704957812
0!
#1704970937
1!
#1704984062
0!
#1704997187
1!
#1705010312
0!
#1705023437
1!
#1705036562
0!
#1705049687
1!
#1705062812
0!
#1705075937
1!
#1705089062
0!
#1705102187
1!
#1705115312
0!
#1705128437
1!
#1705141562
0!
#1705154687
1!
#1705167812
0!
#1705180937
1!
#1705194062
0!
#1705207187
1!
#1705220312
0!
#1705233437
1!
#1705246562
0!
#1705259687
1!
#1705272812
0!
#1705285937
1!
#1705299062
0!
#1705312187
1!
#1705325312
0!
#1705338437
1!
#1705351562
0!
#1705364687
1!
#1705366750
0!
#1705942187
1!
#1705955312
0!
#1705968437
1!
#1705981562
0!
#1705994687
1!
#1706007812
0!
#1706020937
1!
#1706034062
0!
#1706047187
1!
#1706060312
0!
#1706073437
1!
#1706086562
0!
#1706099687
1!
#1706112812
0!
#1706125937
1!
#1706139062
0!
#1706152187
1!
#1706165312
0!
#1706178437
1!
#1706191562
0!
#1706204687
1!
#1706217812
0!
#1706230937
1!
#1706244062
0!
#1706257187
1!
#1706270312
0!
#1706283437
1!
#1706296562
0!
#1706309687
1!
#1706322812
0!
#1706335937
1!
#1706349062
0!
#1706362187
1!
#1706375312
0!
#1706388437
1!
#1706401562
0!
#1706414687
1!
#1706427812
0!
#1706440937
1!
#1706454062
0!
#1706467187
1!
#1706480312
0!
#1707070937
1!
#1707084062
0!
#1707097187
1!
#1707110312
0!
#1707123437
1!
#1707136562
0!
#1707149687
1!
#1707162812
0!
#1707175937
1!
#1707189062
0!
#1707202187
1!
#1707215312
0!
#1707228437
1!
#1707241562
0!
#1707254687
1!
#1707267812
0!
#1707280937
1!
#1707294062
0!
#1707307187
1!
#1707320312
0!
#1707333437
1!
#1707346562
0!
#1707359687
1!
#1707372812
0!
#1707385937
1!
#1707399062
0!
#1707412187
1!
#1707425312
0!
#1707438437
1!
#1707451562
0!
#1707464687
1!
#1707477812
0!
#1707490937
1!
#1707504062
0!
#1707517187
1!
#1707530312
0!
#1707543437
1!
#1707556562
0!
#1707569687
1!
#1707582812
0!
#1707595937
1!
#1707609062
0!
#1708186562
1!
#1708199687
0!
#1708212812
1!
#1708225937
0!
#1708239062
1!
#1708252187
0!
#1708265312
1!
#1708278437
0!
#1708291562
1!
#1708304687
0!
#1708317812
1!
#1708330937
0!
#1708344062
1!
#1708357187
0!
#1708370312
1!
#1708383437
0!
#1708396562
1!
#1708409687
0!
#1708422812
1!
#1708435937
0!
#1708449062
1!
#1708462187
0!
#1708475312
1!
#1708488437
0!
#1708501562
1!
#1708514687
0!
#1708527812
1!
#1708540937
0!
#1708554062
1!
#1708567187
0!
#1708580312
1!
#1708593437
0!
#1708606562
1!
#1708619687
0!
#1708632812
1!
#1708645937
0!
#1708659062
1!
#1708672187
0!
#1708685312
1!
#1708698437
0!
#1708711562
1!
#1708724687
0!
#1708737812
1!
#1708741750
0!
#1709315312
1!
#1709328437
0!
#1709341562
1!
#1709354687
0!
#1709367812
1!
#1709380937
0!
#1709394062
1!
#1709407187
0!
#1709420312
1!
#1709433437
0!
#1709446562
1!
#1709459687
0!
#1709472812
1!
#1709485937
0!
#1709499062
1!
#1709512187
0!
#1709525312
1!
#1709538437
0!
#1709551562
1!
#1709564687
0!
#1709577812
1!
#1709590937
0!
#1709604062
1!
#1709617187
0!
#1709630312
1!
#1709643437
0!
#1709656562
1!
#1709669687
0!
#1709682812
1!
#1709695937
0!
#1709709062
1!
#1709722187
0!
#1709735312
1!
#1709748437
0!
#1709761562
1!
#1709774687
0!
#1709787812
1!
#1709800937
0!
#1709814062
1!
#1709827187
0!
#1709840312
1!
#1709853437
0!
#1709866562
1!
#1709866687
0!
#1710444062
1!
#1710457187
0!
#1710470312
1!
#1710483437
0!
#1710496562
1!
#1710509687
0!
#1710522812
1!
#1710535937
0!
#1710549062
1!
#1710562187
0!
#1710575312
1!
#1710588437
0!
#1710601562
1!
#1710614687
0!
#1710627812
1!
#1710640937
0!
#1710654062
1!
#1710667187
0!
#1710680312
1!
#1710693437
0!
#1710706562
1!
#1710719687
0!
#1710732812
1!
#1710745937
0!
#1710759062
1!
#1710772187
0!
#1710785312
1!
#1710798437
0!
#1710811562
1!
#1710824687
0!
#1710837812
1!
#1710850937
0!
#1710864062
1!
#1710877187
0!
#1710890312
1!
#1710903437
0!
#1710916562
1!
#1710929687
0!
#1710942812
1!
#1710955937
0!
#1710969062
1!
#1710982187
0!
#1711572812
1!
#1711585937
0!
#1711599062
1!
#1711612187
0!
#1711625312
1!
#1711638437
0!
#1711651562
1!
#1711664687
0!
#1711677812
1!
#1711690937
0!
#1711704062
1!
#1711717187
0!
#1711730312
1!
#1711743437
0!
#1711756562
1!
#1711769687
0!
#1711782812
1!
#1711795937
0!
#1711809062
1!
#1711822187
0!
#1711835312
1!
#1711848437
0!
#1711861562
1!
#1711874687
0!
#1711887812
1!
#1711900937
0!
#1711914062
1!
#1711927187
0!
#1711940312
1!
#1711953437
0!
#1711966562
1!
#1711979687
0!
#1711992812
1!
#1712005937
0!
#1712019062
1!
#1712032187
0!
#1712045312
1!
#1712058437
0!
#1712071562
1!
#1712084687
0!
#1712097812
1!
#1712110937
0!
#1713817187
1!
#1713830312
0!
#1713843437
1!
#1713856562
0!
#1713869687
1!
#1713882812
0!
#1713895937
1!
#1713909062
0!
#1713922187
1!
#1713935312
0!
#1713948437
1!
#1713961562
0!
#1713974687
1!
#1713987812
0!
#1714000937
1!
#1714014062
0!
#1714027187
1!
#1714040312
0!
#1714053437
1!
#1714066562
0!
#1714079687
1!
#1714092812
0!
#1714105937
1!
#1714119062
0!
#1714132187
1!
#1714145312
0!
#1714158437
1!
#1714171562
0!
#1714184687
1!
#1714197812
0!
#1714210937
1!
#1714224062
0!
#1714237187
1!
#1714250312
0!
#1714263437
1!
#1714276562
0!
#1714289687
1!
#1714302812
0!
#1714315937
1!
#1714329062
0!
#1714342187
1!
#1714355312
0!
#1716061562
1!
#1716074687
0!
#1716087812
1!
#1716100937
0!
#1716114062
1!
#1716127187
0!
#1716140312
1!
#1716153437
0!
#1716166562
1!
#1716179687
0!
#1716192812
1!
#1716205937
0!
#1716219062
1!
#1716232187
0!
#1716245312
1!
#1716258437
0!
#1716271562
1!
#1716284687
0!
#1716297812
1!
#1716310937
0!
#1716324062
1!
#1716337187
0!
#1716350312
1!
#1716363437
0!
#1716376562
1!
#1716389687
0!
#1716402812
1!
#1716415937
0!
#1716429062
1!
#1716442187
0!
#1716455312
1!
#1716468437
0!
#1716481562
1!
#1716494687
0!
#1716507812
1!
#1716520937
0!
#1716534062
1!
#1716547187
0!
#1716560312
1!
#1716573437
0!
#1716586562
1!
#1716599687
0!
#1716612812
1!
#1716616750
0!
#1718319062
1!
#1718332187
0!
#1718345312
1!
#1718358437
0!
#1718371562
1!
#1718384687
0!
#1718397812
1!
#1718410937
0!
#1718424062
1!
#1718437187
0!
#1718450312
1!
#1718463437
0!
#1718476562
1!
#1718489687
0!
#1718502812
1!
#1718515937
0!
#1718529062
1!
#1718542187
0!
#1718555312
1!
#1718568437
0!
#1718581562
1!
#1718594687
0!
#1718607812
1!
#1718620937
0!
#1718634062
1!
#1718647187
0!
#1718660312
1!
#1718673437
0!
#1718686562
1!
#1718699687
0!
#1718712812
1!
#1718725937
0!
#1718739062
1!
#1718752187
0!
#1718765312
1!
#1718778437
0!
#1718791562
1!
#1718804687
0!
#1718817812
1!
#1718830937
0!
#1718844062
1!
#1718857187
0!
#1720563437
1!
#1720576562
0!
#1720589687
1!
#1720602812
0!
#1720615937
1!
#1720629062
0!
#1720642187
1!
#1720655312
0!
#1720668437
1!
#1720681562
0!
#1720694687
1!
#1720707812
0!
#1720720937
1!
#1720734062
0!
#1720747187
1!
#1720760312
0!
#1720773437
1!
#1720786562
0!
#1720799687
1!
#1720812812
0!
#1720825937
1!
#1720839062
0!
#1720852187
1!
#1720865312
0!
#1720878437
1!
#1720891562
0!
#1720904687
1!
#1720917812
0!
#1720930937
1!
#1720944062
0!
#1720957187
1!
#1720970312
0!
#1720983437
1!
#1720996562
0!
#1721009687
1!
#1721022812
0!
#1721035937
1!
#1721049062
0!
#1721062187
1!
#1721075312
0!
#1721088437
1!
#1721101562
0!
#1721114687
1!
#1721116687
0!
#1722820937
1!
#1722834062
0!
#1722847187
1!
#1722860312
0!
#1722873437
1!
#1722886562
0!
#1722899687
1!
#1722912812
0!
#1722925937
1!
#1722939062
0!
#1722952187
1!
#1722965312
0!
#1722978437
1!
#1722991562
0!
#1723004687
1!
#1723017812
0!
#1723030937
1!
#1723044062
0!
#1723057187
1!
#1723070312
0!
#1723083437
1!
#1723096562
0!
#1723109687
1!
#1723122812
0!
#1723135937
1!
#1723149062
0!
#1723162187
1!
#1723175312
0!
#1723188437
1!
#1723201562
0!
#1723214687
1!
#1723227812
0!
#1723240937
1!
#1723254062
0!
#1723267187
1!
#1723280312
0!
#1723293437
1!
#1723306562
0!
#1723319687
1!
#1723332812
0!
#1723345937
1!
#1723359062
0!
#1725065312
1!
#1725078437
0!
#1725091562
1!
#1725104687
0!
#1725117812
1!
#1725130937
0!
#1725144062
1!
#1725157187
0!
#1725170312
1!
#1725183437
0!
#1725196562
1!
#1725209687
0!
#1725222812
1!
#1725235937
0!
#1725249062
1!
#1725262187
0!
#1725275312
1!
#1725288437
0!
#1725301562
1!
#1725314687
0!
#1725327812
1!
#1725340937
0!
#1725354062
1!
#1725367187
0!
#1725380312
1!
#1725393437
0!
#1725406562
1!
#1725419687
0!
#1725432812
1!
#1725445937
0!
#1725459062
1!
#1725472187
0!
#1725485312
1!
#1725498437
0!
#1725511562
1!
#1725524687
0!
#1725537812
1!
#1725550937
0!
#1725564062
1!
#1725577187
0!
#1725590312
1!
#1725603437
0!
#1725616562
1!
#1725616687
0!
#1727322812
1!
#1727335937
0!
#1727349062
1!
#1727362187
0!
#1727375312
1!
#1727388437
0!
#1727401562
1!
#1727414687
0!
#1727427812
1!
#1727440937
0!
#1727454062
1!
#1727467187
0!
#1727480312
1!
#1727493437
0!
#1727506562
1!
#1727519687
0!
#1727532812
1!
#1727545937
0!
#1727559062
1!
#1727572187
0!
#1727585312
1!
#1727598437
0!
#1727611562
1!
#1727624687
0!
#1727637812
1!
#1727650937
0!
#1727664062
1!
#1727677187
0!
#1727690312
1!
#1727703437
0!
#1727716562
1!
#1727729687
0!
#1727742812
1!
#1727755937
0!
#1727769062
1!
#1727782187
0!
#1727795312
1!
#1727808437
0!
#1727821562
1!
#1727834687
0!
#1727847812
1!
#1727860937
0!
#1729567187
1!
#1729580312
0!
#1729593437
1!
#1729606562
0!
#1729619687
1!
#1729632812
0!
#1729645937
1!
#1729659062
0!
#1729672187
1!
#1729685312
0!
#1729698437
1!
#1729711562
0!
#1729724687
1!
#1729737812
0!
#1729750937
1!
#1729764062
0!
#1729777187
1!
#1729790312
0!
#1729803437
1!
#1729816562
0!
#1729829687
1!
#1729842812
0!
#1729855937
1!
#1729869062
0!
#1729882187
1!
#1729895312
0!
#1729908437
1!
#1729921562
0!
#1729934687
1!
#1729947812
0!
#1729960937
1!
#1729974062
0!
#1729987187
1!
#1730000312
0!
#1730013437
1!
#1730026562
0!
#1730039687
1!
#1730052812
0!
#1730065937
1!
#1730079062
0!
#1730092187
1!
#1730105312
0!
#1730695937
1!
#1730709062
0!
#1730722187
1!
#1730735312
0!
#1730748437
1!
#1730761562
0!
#1730774687
1!
#1730787812
0!
#1730800937
1!
#1730814062
0!
#1730827187
1!
#1730840312
0!
#1730853437
1!
#1730866562
0!
#1730879687
1!
#1730892812
0!
#1730905937
1!
#1730919062
0!
#1730932187
1!
#1730945312
0!
#1730958437
1!
#1730971562
0!
#1730984687
1!
#1730997812
0!
#1731010937
1!
#1731024062
0!
#1731037187
1!
#1731050312
0!
#1731063437
1!
#1731076562
0!
#1731089687
1!
#1731102812
0!
#1731115937
1!
#1731129062
0!
#1731142187
1!
#1731155312
0!
#1731168437
1!
#1731181562
0!
#1731194687
1!
#1731207812
0!
#1731220937
1!
#1731234062
0!
#1731811562
1!
#1731824687
0!
#1731837812
1!
#1731850937
0!
#1731864062
1!
#1731877187
0!
#1731890312
1!
#1731903437
0!
#1731916562
1!
#1731929687
0!
#1731942812
1!
#1731955937
0!
#1731969062
1!
#1731982187
0!
#1731995312
1!
#1732008437
0!
#1732021562
1!
#1732034687
0!
#1732047812
1!
#1732060937
0!
#1732074062
1!
#1732087187
0!
#1732100312
1!
#1732113437
0!
#1732126562
1!
#1732139687
0!
#1732152812
1!
#1732165937
0!
#1732179062
1!
#1732192187
0!
#1732205312
1!
#1732218437
0!
#1732231562
1!
#1732244687
0!
#1732257812
1!
#1732270937
0!
#1732284062
1!
#1732297187
0!
#1732310312
1!
#1732323437
0!
#1732336562
1!
#1732349687
0!
#1732362812
1!
#1732366687
0!
#1732940312
1!
#1732953437
0!
#1732966562
1!
#1732979687
0!
#1732992812
1!
#1733005937
0!
#1733019062
1!
#1733032187
0!
#1733045312
1!
#1733058437
0!
#1733071562
1!
#1733084687
0!
#1733097812
1!
#1733110937
0!
#1733124062
1!
#1733137187
0!
#1733150312
1!
#1733163437
0!
#1733176562
1!
#1733189687
0!
#1733202812
1!
#1733215937
0!
#1733229062
1!
#1733242187
0!
#1733255312
1!
#1733268437
0!
#1733281562
1!
#1733294687
0!
#1733307812
1!
#1733320937
0!
#1733334062
1!
#1733347187
0!
#1733360312
1!
#1733373437
0!
#1733386562
1!
#1733399687
0!
#1733412812
1!
#1733425937
0!
#1733439062
1!
#1733452187
0!
#1733465312
1!
#1733478437
0!
#1733491562
1!
#1733491750
0!
#1734069062
1!
#1734082187
0!
#1734095312
1!
#1734108437
0!
#1734121562
1!
#1734134687
0!
#1734147812
1!
#1734160937
0!
#1734174062
1!
#1734187187
0!
#1734200312
1!
#1734213437
0!
#1734226562
1!
#1734239687
0!
#1734252812
1!
#1734265937
0!
#1734279062
1!
#1734292187
0!
#1734305312
1!
#1734318437
0!
#1734331562
1!
#1734344687
0!
#1734357812
1!
#1734370937
0!
#1734384062
1!
#1734397187
0!
#1734410312
1!
#1734423437
0!
#1734436562
1!
#1734449687
0!
#1734462812
1!
#1734475937
0!
#1734489062
1!
#1734502187
0!
#1734515312
1!
#1734528437
0!
#1734541562
1!
#1734554687
0!
#1734567812
1!
#1734580937
0!
#1734594062
1!
#1734607187
0!
#1736313437
1!
#1736326562
0!
#1736339687
1!
#1736352812
0!
#1736365937
1!
#1736379062
0!
#1736392187
1!
#1736405312
0!
#1736418437
1!
#1736431562
0!
#1736444687
1!
#1736457812
0!
#1736470937
1!
#1736484062
0!
#1736497187
1!
#1736510312
0!
#1736523437
1!
#1736536562
0!
#1736549687
1!
#1736562812
0!
#1736575937
1!
#1736589062
0!
#1736602187
1!
#1736615312
0!
#1736628437
1!
#1736641562
0!
#1736654687
1!
#1736667812
0!
#1736680937
1!
#1736694062
0!
#1736707187
1!
#1736720312
0!
#1736733437
1!
#1736746562
0!
#1736759687
1!
#1736772812
0!
#1736785937
1!
#1736799062
0!
#1736812187
1!
#1736825312
0!
#1736838437
1!
#1736851562
0!
#1736864687
1!
#1736866750
0!
#1738570937
1!
#1738584062
0!
#1738597187
1!
#1738610312
0!
#1738623437
1!
#1738636562
0!
#1738649687
1!
#1738662812
0!
#1738675937
1!
#1738689062
0!
#1738702187
1!
#1738715312
0!
#1738728437
1!
#1738741562
0!
#1738754687
1!
#1738767812
0!
#1738780937
1!
#1738794062
0!
#1738807187
1!
#1738820312
0!
#1738833437
1!
#1738846562
0!
#1738859687
1!
