File LogicAnalyzer/NecCode_con_RepeatCodes.vcd
$version Generated by Wokwi.com $end
$date Wed, 30 Aug 2023 18:53:11 GMT $end
$timescale 1ns $end
$scope module logic $end
$var wire 1 ! D0 $end
$upscope $end
$enddefinitions $end
#0
0!
#689063500
1!
#689076625
0!
#689089750
1!
#689102875
0!
#689116000
1!
#689129125
0!
#689142250
1!
#689155375
0!
#689168500
1!
#689181625
0!
#689194750
1!
#689207875
0!
#689221000
1!
#689234125
0!
#689247250
1!
#689260375
0!
#689273500
1!
#689286625
0!
#689299750
1!
#689312875
0!
#689326000
1!
#689339125
0!
#689352250
1!
#689365375
0!
#689378500
1!
#689391625
0!
#689404750
1!
#689417875
0!
#689431000
1!
#689444125
0!
#689457250
1!
#689470375
0!
#689483500
1!
#689496625
0!
#689509750
1!
#689522875
0!
#689536000
1!
#689549125
0!
#689562250
1!
#689575375
0!
#689588500
1!
#689601625
0!
#689614750
1!
#689627875
0!
#689641000
1!
#689654125
0!
#689667250
1!
#689680375
0!
#689693500
1!
#689706625
0!
#689719750
1!
#689732875
0!
#689746000
1!
#689759125
0!
#689772250
1!
#689785375
0!
#689798500
1!
#689811625
0!
#689824750
1!
#689837875
0!
#689851000
1!
#689864125
0!
#689877250
1!
#689890375
0!
#689903500
1!
#689916625
0!
#689929750
1!
#689942875
0!
#689956000
1!
#689969125
0!
#689982250
1!
#689995375
0!
#690008500
1!
#690021625
0!
#690034750
1!
#690047875
0!
#690061000
1!
#690074125
0!
#690087250
1!
#690100375
0!
#690113500
1!
#690126625
0!
#690139750
1!
#690152875
0!
#690166000
1!
#690179125
0!
#690192250
1!
#690205375
0!
#690218500
1!
#690231625
0!
#690244750
1!
#690257875
0!
#690271000
1!
#690284125
0!
#690297250
1!
#690310375
0!
#690323500
1!
#690336625
0!
#690349750
1!
#690362875
0!
#690376000
1!
#690389125
0!
#690402250
1!
#690415375
0!
#690428500
1!
#690441625
0!
#690454750
1!
#690467875
0!
#690481000
1!
#690494125
0!
#690507250
1!
#690520375
0!
#690533500
1!
#690546625
0!
#690559750
1!
#690572875
0!
#690586000
1!
#690599125
0!
#690612250
1!
#690625375
0!
#690638500
1!
#690651625
0!
#690664750
1!
#690677875
0!
#690691000
1!
#690704125
0!
#690717250
1!
#690730375
0!
#690743500
1!
#690756625
0!
#690769750
1!
#690782875
0!
#690796000
1!
#690809125
0!
#690822250
1!
#690835375
0!
#690848500
1!
#690861625
0!
#690874750
1!
#690887875
0!
#690901000
1!
#690914125
0!
#690927250
1!
#690940375
0!
#690953500
1!
#690966625
0!
#690979750
1!
#690992875
0!
#691006000
1!
#691019125
0!
#691032250
1!
#691045375
0!
#691058500
1!
#691071625
0!
#691084750
1!
#691097875
0!
#691111000
1!
#691124125
0!
#691137250
1!
#691150375
0!
#691163500
1!
#691176625
0!
#691189750
1!
#691202875
0!
#691216000
1!
#691229125
0!
#691242250
1!
#691255375
0!
#691268500
1!
#691281625
0!
#691294750
1!
#691307875
0!
#691321000
1!
#691334125
0!
#691347250
1!
#691360375
0!
#691373500
1!
#691386625
0!
#691399750
1!
#691412875
0!
#691426000
1!
#691439125
0!
#691452250
1!
#691465375
0!
#691478500
1!
#691491625
0!
#691504750
1!
#691517875
0!
#691531000
1!
#691544125
0!
#691557250
1!
#691570375
0!
#691583500
1!
#691596625
0!
#691609750
1!
#691622875
0!
#691636000
1!
#691649125
0!
#691662250
1!
#691675375
0!
#691688500
1!
#691701625
0!
#691714750
1!
#691727875
0!
#691741000
1!
#691754125
0!
#691767250
1!
#691780375
0!
#691793500
1!
#691806625
0!
#691819750
1!
#691832875
0!
#691846000
1!
#691859125
0!
#691872250
1!
#691885375
0!
#691898500
1!
#691911625
0!
#691924750
1!
#691937875
0!
#691951000
1!
#691964125
0!
#691977250
1!
#691990375
0!
#692003500
1!
#692016625
0!
#692029750
1!
#692042875
0!
#692056000
1!
#692069125
0!
#692082250
1!
#692095375
0!
#692108500
1!
#692121625
0!
#692134750
1!
#692147875
0!
#692161000
1!
#692174125
0!
#692187250
1!
#692200375
0!
#692213500
1!
#692226625
0!
#692239750
1!
#692252875
0!
#692266000
1!
#692279125
0!
#692292250
1!
#692305375
0!
#692318500
1!
#692331625
0!
#692344750
1!
#692357875
0!
#692371000
1!
#692384125
0!
#692397250
1!
#692410375
0!
#692423500
1!
#692436625
0!
#692449750
1!
#692462875
0!
#692476000
1!
#692489125
0!
#692502250
1!
#692515375
0!
#692528500
1!
#692541625
0!
#692554750
1!
#692567875
0!
#692581000
1!
#692594125
0!
#692607250
1!
#692620375
0!
#692633500
1!
#692646625
0!
#692659750
1!
#692672875
0!
#692686000
1!
#692699125
0!
#692712250
1!
#692725375
0!
#692738500
1!
#692751625
0!
#692764750
1!
#692777875
0!
#692791000
1!
#692804125
0!
#692817250
1!
#692830375
0!
#692843500
1!
#692856625
0!
#692869750
1!
#692882875
0!
#692896000
1!
#692909125
0!
#692922250
1!
#692935375
0!
#692948500
1!
#692961625
0!
#692974750
1!
#692987875
0!
#693001000
1!
#693014125
0!
#693027250
1!
#693040375
0!
#693053500
1!
#693066625
0!
#693079750
1!
#693092875
0!
#693106000
1!
#693119125
0!
#693132250
1!
#693145375
0!
#693158500
1!
#693171625
0!
#693184750
1!
#693197875
0!
#693211000
1!
#693224125
0!
#693237250
1!
#693250375
0!
#693263500
1!
#693276625
0!
#693289750
1!
#693302875
0!
#693316000
1!
#693329125
0!
#693342250
1!
#693355375
0!
#693368500
1!
#693381625
0!
#693394750
1!
#693407875
0!
#693421000
1!
#693434125
0!
#693447250
1!
#693460375
0!
#693473500
1!
#693486625
0!
#693499750
1!
#693512875
0!
#693526000
1!
#693539125
0!
#693552250
1!
#693565375
0!
#693578500
1!
#693591625
0!
#693604750
1!
#693617875
0!
#693631000
1!
#693644125
0!
#693657250
1!
#693670375
0!
#693683500
1!
#693696625
0!
#693709750
1!
#693722875
0!
#693736000
1!
#693749125
0!
#693762250
1!
#693775375
0!
#693788500
1!
#693801625
0!
#693814750
1!
#693827875
0!
#693841000
1!
#693854125
0!
#693867250
1!
#693880375
0!
#693893500
1!
#693906625
0!
#693919750
1!
#693932875
0!
#693946000
1!
#693959125
0!
#693972250
1!
#693985375
0!
#693998500
1!
#694011625
0!
#694024750
1!
#694037875
0!
#694051000
1!
#694064125
0!
#694077250
1!
#694090375
0!
#694103500
1!
#694116625
0!
#694129750
1!
#694142875
0!
#694156000
1!
#694169125
0!
#694182250
1!
#694195375
0!
#694208500
1!
#694221625
0!
#694234750
1!
#694247875
0!
#694261000
1!
#694274125
0!
#694287250
1!
#694300375
0!
#694313500
1!
#694326625
0!
#694339750
1!
#694352875
0!
#694366000
1!
#694379125
0!
#694392250
1!
#694405375
0!
#694418500
1!
#694431625
0!
#694444750
1!
#694457875
0!
#694471000
1!
#694484125
0!
#694497250
1!
#694510375
0!
#694523500
1!
#694536625
0!
#694549750
1!
#694562875
0!
#694576000
1!
#694589125
0!
#694602250
1!
#694615375
0!
#694628500
1!
#694641625
0!
#694654750
1!
#694667875
0!
#694681000
1!
#694694125
0!
#694707250
1!
#694720375
0!
#694733500
1!
#694746625
0!
#694759750
1!
#694772875
0!
#694786000
1!
#694799125
0!
#694812250
1!
#694825375
0!
#694838500
1!
#694851625
0!
#694864750
1!
#694877875
0!
#694891000
1!
#694904125
0!
#694917250
1!
#694930375
0!
#694943500
1!
#694956625
0!
#694969750
1!
#694982875
0!
#694996000
1!
#695009125
0!
#695022250
1!
#695035375
0!
#695048500
1!
#695061625
0!
#695074750
1!
#695087875
0!
#695101000
1!
#695114125
0!
#695127250
1!
#695140375
0!
#695153500
1!
#695166625
0!
#695179750
1!
#695192875
0!
#695206000
1!
#695219125
0!
#695232250
1!
#695245375
0!
#695258500
1!
#695271625
0!
#695284750
1!
#695297875
0!
#695311000
1!
#695324125
0!
#695337250
1!
#695350375
0!
#695363500
1!
#695376625
0!
#695389750
1!
#695402875
0!
#695416000
1!
#695429125
0!
#695442250
1!
#695455375
0!
#695468500
1!
#695481625
0!
#695494750
1!
#695507875
0!
#695521000
1!
#695534125
0!
#695547250
1!
#695560375
0!
#695573500
1!
#695586625
0!
#695599750
1!
#695612875
0!
#695626000
1!
#695639125
0!
#695652250
1!
#695665375
0!
#695678500
1!
#695691625
0!
#695704750
1!
#695717875
0!
#695731000
1!
#695744125
0!
#695757250
1!
#695770375
0!
#695783500
1!
#695796625
0!
#695809750
1!
#695822875
0!
#695836000
1!
#695849125
0!
#695862250
1!
#695875375
0!
#695888500
1!
#695901625
0!
#695914750
1!
#695927875
0!
#695941000
1!
#695954125
0!
#695967250
1!
#695980375
0!
#695993500
1!
#696006625
0!
#696019750
1!
#696032875
0!
#696046000
1!
#696059125
0!
#696072250
1!
#696085375
0!
#696098500
1!
#696111625
0!
#696124750
1!
#696137875
0!
#696151000
1!
#696164125
0!
#696177250
1!
#696190375
0!
#696203500
1!
#696216625
0!
#696229750
1!
#696242875
0!
#696256000
1!
#696269125
0!
#696282250
1!
#696295375
0!
#696308500
1!
#696321625
0!
#696334750
1!
#696347875
0!
#696361000
1!
#696374125
0!
#696387250
1!
#696400375
0!
#696413500
1!
#696426625
0!
#696439750
1!
#696452875
0!
#696466000
1!
#696479125
0!
#696492250
1!
#696505375
0!
#696518500
1!
#696531625
0!
#696544750
1!
#696557875
0!
#696571000
1!
#696584125
0!
#696597250
1!
#696610375
0!
#696623500
1!
#696636625
0!
#696649750
1!
#696662875
0!
#696676000
1!
#696689125
0!
#696702250
1!
#696715375
0!
#696728500
1!
#696741625
0!
#696754750
1!
#696767875
0!
#696781000
1!
#696794125
0!
#696807250
1!
#696820375
0!
#696833500
1!
#696846625
0!
#696859750
1!
#696872875
0!
#696886000
1!
#696899125
0!
#696912250
1!
#696925375
0!
#696938500
1!
#696951625
0!
#696964750
1!
#696977875
0!
#696991000
1!
#697004125
0!
#697017250
1!
#697030375
0!
#697043500
1!
#697056625
0!
#697069750
1!
#697082875
0!
#697096000
1!
#697109125
0!
#697122250
1!
#697135375
0!
#697148500
1!
#697161625
0!
#697174750
1!
#697187875
0!
#697201000
1!
#697214125
0!
#697227250
1!
#697240375
0!
#697253500
1!
#697266625
0!
#697279750
1!
#697292875
0!
#697306000
1!
#697319125
0!
#697332250
1!
#697345375
0!
#697358500
1!
#697371625
0!
#697384750
1!
#697397875
0!
#697411000
1!
#697424125
0!
#697437250
1!
#697450375
0!
#697463500
1!
#697476625
0!
#697489750
1!
#697502875
0!
#697516000
1!
#697529125
0!
#697542250
1!
#697555375
0!
#697568500
1!
#697581625
0!
#697594750
1!
#697607875
0!
#697621000
1!
#697634125
0!
#697647250
1!
#697660375
0!
#697673500
1!
#697686625
0!
#697699750
1!
#697712875
0!
#697726000
1!
#697739125
0!
#697752250
1!
#697765375
0!
#697778500
1!
#697791625
0!
#697804750
1!
#697817875
0!
#697831000
1!
#697844125
0!
#697857250
1!
#697870375
0!
#697883500
1!
#697896625
0!
#697909750
1!
#697922875
0!
#697936000
1!
#697949125
0!
#697962250
1!
#697975375
0!
#697988500
1!
#698001625
0!
#698014750
1!
#698027875
0!
#698041000
1!
#698054125
0!
#702569125
1!
#702582250
0!
#702595375
1!
#702608500
0!
#702621625
1!
#702634750
0!
#702647875
1!
#702661000
0!
#702674125
1!
#702687250
0!
#702700375
1!
#702713500
0!
#702726625
1!
#702739750
0!
#702752875
1!
#702766000
0!
#702779125
1!
#702792250
0!
#702805375
1!
#702818500
0!
#702831625
1!
#702844750
0!
#702857875
1!
#702871000
0!
#702884125
1!
#702897250
0!
#702910375
1!
#702923500
0!
#702936625
1!
#702949750
0!
#702962875
1!
#702976000
0!
#702989125
1!
#703002250
0!
#703015375
1!
#703028500
0!
#703041625
1!
#703054750
0!
#703067875
1!
#703081000
0!
#703094125
1!
#703107250
0!
#703684750
1!
#703697875
0!
#703711000
1!
#703724125
0!
#703737250
1!
#703750375
0!
#703763500
1!
#703776625
0!
#703789750
1!
#703802875
0!
#703816000
1!
#703829125
0!
#703842250
1!
#703855375
0!
#703868500
1!
#703881625
0!
#703894750
1!
#703907875
0!
#703921000
1!
#703934125
0!
#703947250
1!
#703960375
0!
#703973500
1!
#703986625
0!
#703999750
1!
#704012875
0!
#704026000
1!
#704039125
0!
#704052250
1!
#704065375
0!
#704078500
1!
#704091625
0!
#704104750
1!
#704117875
0!
#704131000
1!
#704144125
0!
#704157250
1!
#704170375
0!
#704183500
1!
#704196625
0!
#704209750
1!
#704222875
0!
#704236000
1!
#704241750
0!
#704813500
1!
#704826625
0!
#704839750
1!
#704852875
0!
#704866000
1!
#704879125
0!
#704892250
1!
#704905375
0!
#704918500
1!
#704931625
0!
#704944750
1!
#704957875
0!
#704971000
1!
#704984125
0!
#704997250
1!
#705010375
0!
#705023500
1!
#705036625
0!
#705049750
1!
#705062875
0!
#705076000
1!
#705089125
0!
#705102250
1!
#705115375
0!
#705128500
1!
#705141625
0!
#705154750
1!
#705167875
0!
#705181000
1!
#705194125
0!
#705207250
1!
#705220375
0!
#705233500
1!
#705246625
0!
#705259750
1!
#705272875
0!
#705286000
1!
#705299125
0!
#705312250
1!
#705325375
0!
#705338500
1!
#705351625
0!
#705364750
1!
#705366812
0!
#705942250
1!
#705955375
0!
#705968500
1!
#705981625
0!
#705994750
1!
#706007875
0!
#706021000
1!
#706034125
0!
#706047250
1!
#706060375
0!
#706073500
1!
#706086625
0!
#706099750
1!
#706112875
0!
#706126000
1!
#706139125
0!
#706152250
1!
#706165375
0!
#706178500
1!
#706191625
0!
#706204750
1!
#706217875
0!
#706231000
1!
#706244125
0!
#706257250
1!
#706270375
0!
#706283500
1!
#706296625
0!
#706309750
1!
#706322875
0!
#706336000
1!
#706349125
0!
#706362250
1!
#706375375
0!
#706388500
1!
#706401625
0!
#706414750
1!
#706427875
0!
#706441000
1!
#706454125
0!
#706467250
1!
#706480375
0!
#707071000
1!
#707084125
0!
#707097250
1!
#707110375
0!
#707123500
1!
#707136625
0!
#707149750
1!
#707162875
0!
#707176000
1!
#707189125
0!
#707202250
1!
#707215375
0!
#707228500
1!
#707241625
0!
#707254750
1!
#707267875
0!
#707281000
1!
#707294125
0!
#707307250
1!
#707320375
0!
#707333500
1!
#707346625
0!
#707359750
1!
#707372875
0!
#707386000
1!
#707399125
0!
#707412250
1!
#707425375
0!
#707438500
1!
#707451625
0!
#707464750
1!
#707477875
0!
#707491000
1!
#707504125
0!
#707517250
1!
#707530375
0!
#707543500
1!
#707556625
0!
#707569750
1!
#707582875
0!
#707596000
1!
#707609125
0!
#708186625
1!
#708199750
0!
#708212875
1!
#708226000
0!
#708239125
1!
#708252250
0!
#708265375
1!
#708278500
0!
#708291625
1!
#708304750
0!
#708317875
1!
#708331000
0!
#708344125
1!
#708357250
0!
#708370375
1!
#708383500
0!
#708396625
1!
#708409750
0!
#708422875
1!
#708436000
0!
#708449125
1!
#708462250
0!
#708475375
1!
#708488500
0!
#708501625
1!
#708514750
0!
#708527875
1!
#708541000
0!
#708554125
1!
#708567250
0!
#708580375
1!
#708593500
0!
#708606625
1!
#708619750
0!
#708632875
1!
#708646000
0!
#708659125
1!
#708672250
0!
#708685375
1!
#708698500
0!
#708711625
1!
#708724750
0!
#708737875
1!
#708741812
0!
#709315375
1!
#709328500
0!
#709341625
1!
#709354750
0!
#709367875
1!
#709381000
0!
#709394125
1!
#709407250
0!
#709420375
1!
#709433500
0!
#709446625
1!
#709459750
0!
#709472875
1!
#709486000
0!
#709499125
1!
#709512250
0!
#709525375
1!
#709538500
0!
#709551625
1!
#709564750
0!
#709577875
1!
#709591000
0!
#709604125
1!
#709617250
0!
#709630375
1!
#709643500
0!
#709656625
1!
#709669750
0!
#709682875
1!
#709696000
0!
#709709125
1!
#709722250
0!
#709735375
1!
#709748500
0!
#709761625
1!
#709774750
0!
#709787875
1!
#709801000
0!
#709814125
1!
#709827250
0!
#709840375
1!
#709853500
0!
#709866625
1!
#709866750
0!
#710444125
1!
#710457250
0!
#710470375
1!
#710483500
0!
#710496625
1!
#710509750
0!
#710522875
1!
#710536000
0!
#710549125
1!
#710562250
0!
#710575375
1!
#710588500
0!
#710601625
1!
#710614750
0!
#710627875
1!
#710641000
0!
#710654125
1!
#710667250
0!
#710680375
1!
#710693500
0!
#710706625
1!
#710719750
0!
#710732875
1!
#710746000
0!
#710759125
1!
#710772250
0!
#710785375
1!
#710798500
0!
#710811625
1!
#710824750
0!
#710837875
1!
#710851000
0!
#710864125
1!
#710877250
0!
#710890375
1!
#710903500
0!
#710916625
1!
#710929750
0!
#710942875
1!
#710956000
0!
#710969125
1!
#710982250
0!
#711572875
1!
#711586000
0!
#711599125
1!
#711612250
0!
#711625375
1!
#711638500
0!
#711651625
1!
#711664750
0!
#711677875
1!
#711691000
0!
#711704125
1!
#711717250
0!
#711730375
1!
#711743500
0!
#711756625
1!
#711769750
0!
#711782875
1!
#711796000
0!
#711809125
1!
#711822250
0!
#711835375
1!
#711848500
0!
#711861625
1!
#711874750
0!
#711887875
1!
#711901000
0!
#711914125
1!
#711927250
0!
#711940375
1!
#711953500
0!
#711966625
1!
#711979750
0!
#711992875
1!
#712006000
0!
#712019125
1!
#712032250
0!
#712045375
1!
#712058500
0!
#712071625
1!
#712084750
0!
#712097875
1!
#712111000
0!
#713817250
1!
#713830375
0!
#713843500
1!
#713856625
0!
#713869750
1!
#713882875
0!
#713896000
1!
#713909125
0!
#713922250
1!
#713935375
0!
#713948500
1!
#713961625
0!
#713974750
1!
#713987875
0!
#714001000
1!
#714014125
0!
#714027250
1!
#714040375
0!
#714053500
1!
#714066625
0!
#714079750
1!
#714092875
0!
#714106000
1!
#714119125
0!
#714132250
1!
#714145375
0!
#714158500
1!
#714171625
0!
#714184750
1!
#714197875
0!
#714211000
1!
#714224125
0!
#714237250
1!
#714250375
0!
#714263500
1!
#714276625
0!
#714289750
1!
#714302875
0!
#714316000
1!
#714329125
0!
#714342250
1!
#714355375
0!
#716061625
1!
#716074750
0!
#716087875
1!
#716101000
0!
#716114125
1!
#716127250
0!
#716140375
1!
#716153500
0!
#716166625
1!
#716179750
0!
#716192875
1!
#716206000
0!
#716219125
1!
#716232250
0!
#716245375
1!
#716258500
0!
#716271625
1!
#716284750
0!
#716297875
1!
#716311000
0!
#716324125
1!
#716337250
0!
#716350375
1!
#716363500
0!
#716376625
1!
#716389750
0!
#716402875
1!
#716416000
0!
#716429125
1!
#716442250
0!
#716455375
1!
#716468500
0!
#716481625
1!
#716494750
0!
#716507875
1!
#716521000
0!
#716534125
1!
#716547250
0!
#716560375
1!
#716573500
0!
#716586625
1!
#716599750
0!
#716612875
1!
#716616812
0!
#718319125
1!
#718332250
0!
#718345375
1!
#718358500
0!
#718371625
1!
#718384750
0!
#718397875
1!
#718411000
0!
#718424125
1!
#718437250
0!
#718450375
1!
#718463500
0!
#718476625
1!
#718489750
0!
#718502875
1!
#718516000
0!
#718529125
1!
#718542250
0!
#718555375
1!
#718568500
0!
#718581625
1!
#718594750
0!
#718607875
1!
#718621000
0!
#718634125
1!
#718647250
0!
#718660375
1!
#718673500
0!
#718686625
1!
#718699750
0!
#718712875
1!
#718726000
0!
#718739125
1!
#718752250
0!
#718765375
1!
#718778500
0!
#718791625
1!
#718804750
0!
#718817875
1!
#718831000
0!
#718844125
1!
#718857250
0!
#720563500
1!
#720576625
0!
#720589750
1!
#720602875
0!
#720616000
1!
#720629125
0!
#720642250
1!
#720655375
0!
#720668500
1!
#720681625
0!
#720694750
1!
#720707875
0!
#720721000
1!
#720734125
0!
#720747250
1!
#720760375
0!
#720773500
1!
#720786625
0!
#720799750
1!
#720812875
0!
#720826000
1!
#720839125
0!
#720852250
1!
#720865375
0!
#720878500
1!
#720891625
0!
#720904750
1!
#720917875
0!
#720931000
1!
#720944125
0!
#720957250
1!
#720970375
0!
#720983500
1!
#720996625
0!
#721009750
1!
#721022875
0!
#721036000
1!
#721049125
0!
#721062250
1!
#721075375
0!
#721088500
1!
#721101625
0!
#721114750
1!
#721116812
0!
#722821000
1!
#722834125
0!
#722847250
1!
#722860375
0!
#722873500
1!
#722886625
0!
#722899750
1!
#722912875
0!
#722926000
1!
#722939125
0!
#722952250
1!
#722965375
0!
#722978500
1!
#722991625
0!
#723004750
1!
#723017875
0!
#723031000
1!
#723044125
0!
#723057250
1!
#723070375
0!
#723083500
1!
#723096625
0!
#723109750
1!
#723122875
0!
#723136000
1!
#723149125
0!
#723162250
1!
#723175375
0!
#723188500
1!
#723201625
0!
#723214750
1!
#723227875
0!
#723241000
1!
#723254125
0!
#723267250
1!
#723280375
0!
#723293500
1!
#723306625
0!
#723319750
1!
#723332875
0!
#723346000
1!
#723359125
0!
#725065375
1!
#725078500
0!
#725091625
1!
#725104750
0!
#725117875
1!
#725131000
0!
#725144125
1!
#725157250
0!
#725170375
1!
#725183500
0!
#725196625
1!
#725209750
0!
#725222875
1!
#725236000
0!
#725249125
1!
#725262250
0!
#725275375
1!
#725288500
0!
#725301625
1!
#725314750
0!
#725327875
1!
#725341000
0!
#725354125
1!
#725367250
0!
#725380375
1!
#725393500
0!
#725406625
1!
#725419750
0!
#725432875
1!
#725446000
0!
#725459125
1!
#725472250
0!
#725485375
1!
#725498500
0!
#725511625
1!
#725524750
0!
#725537875
1!
#725551000
0!
#725564125
1!
#725577250
0!
#725590375
1!
#725603500
0!
#725616625
1!
#725616750
0!
#727322875
1!
#727336000
0!
#727349125
1!
#727362250
0!
#727375375
1!
#727388500
0!
#727401625
1!
#727414750
0!
#727427875
1!
#727441000
0!
#727454125
1!
#727467250
0!
#727480375
1!
#727493500
0!
#727506625
1!
#727519750
0!
#727532875
1!
#727546000
0!
#727559125
1!
#727572250
0!
#727585375
1!
#727598500
0!
#727611625
1!
#727624750
0!
#727637875
1!
#727651000
0!
#727664125
1!
#727677250
0!
#727690375
1!
#727703500
0!
#727716625
1!
#727729750
0!
#727742875
1!
#727756000
0!
#727769125
1!
#727782250
0!
#727795375
1!
#727808500
0!
#727821625
1!
#727834750
0!
#727847875
1!
#727861000
0!
#729567250
1!
#729580375
0!
#729593500
1!
#729606625
0!
#729619750
1!
#729632875
0!
#729646000
1!
#729659125
0!
#729672250
1!
#729685375
0!
#729698500
1!
#729711625
0!
#729724750
1!
#729737875
0!
#729751000
1!
#729764125
0!
#729777250
1!
#729790375
0!
#729803500
1!
#729816625
0!
#729829750
1!
#729842875
0!
#729856000
1!
#729869125
0!
#729882250
1!
#729895375
0!
#729908500
1!
#729921625
0!
#729934750
1!
#729947875
0!
#729961000
1!
#729974125
0!
#729987250
1!
#730000375
0!
#730013500
1!
#730026625
0!
#730039750
1!
#730052875
0!
#730066000
1!
#730079125
0!
#730092250
1!
#730105375
0!
#730696000
1!
#730709125
0!
#730722250
1!
#730735375
0!
#730748500
1!
#730761625
0!
#730774750
1!
#730787875
0!
#730801000
1!
#730814125
0!
#730827250
1!
#730840375
0!
#730853500
1!
#730866625
0!
#730879750
1!
#730892875
0!
#730906000
1!
#730919125
0!
#730932250
1!
#730945375
0!
#730958500
1!
#730971625
0!
#730984750
1!
#730997875
0!
#731011000
1!
#731024125
0!
#731037250
1!
#731050375
0!
#731063500
1!
#731076625
0!
#731089750
1!
#731102875
0!
#731116000
1!
#731129125
0!
#731142250
1!
#731155375
0!
#731168500
1!
#731181625
0!
#731194750
1!
#731207875
0!
#731221000
1!
#731234125
0!
#731811625
1!
#731824750
0!
#731837875
1!
#731851000
0!
#731864125
1!
#731877250
0!
#731890375
1!
#731903500
0!
#731916625
1!
#731929750
0!
#731942875
1!
#731956000
0!
#731969125
1!
#731982250
0!
#731995375
1!
#732008500
0!
#732021625
1!
#732034750
0!
#732047875
1!
#732061000
0!
#732074125
1!
#732087250
0!
#732100375
1!
#732113500
0!
#732126625
1!
#732139750
0!
#732152875
1!
#732166000
0!
#732179125
1!
#732192250
0!
#732205375
1!
#732218500
0!
#732231625
1!
#732244750
0!
#732257875
1!
#732271000
0!
#732284125
1!
#732297250
0!
#732310375
1!
#732323500
0!
#732336625
1!
#732349750
0!
#732362875
1!
#732366812
0!
#732940375
1!
#732953500
0!
#732966625
1!
#732979750
0!
#732992875
1!
#733006000
0!
#733019125
1!
#733032250
0!
#733045375
1!
#733058500
0!
#733071625
1!
#733084750
0!
#733097875
1!
#733111000
0!
#733124125
1!
#733137250
0!
#733150375
1!
#733163500
0!
#733176625
1!
#733189750
0!
#733202875
1!
#733216000
0!
#733229125
1!
#733242250
0!
#733255375
1!
#733268500
0!
#733281625
1!
#733294750
0!
#733307875
1!
#733321000
0!
#733334125
1!
#733347250
0!
#733360375
1!
#733373500
0!
#733386625
1!
#733399750
0!
#733412875
1!
#733426000
0!
#733439125
1!
#733452250
0!
#733465375
1!
#733478500
0!
#733491625
1!
#733491750
0!
#734069125
1!
#734082250
0!
#734095375
1!
#734108500
0!
#734121625
1!
#734134750
0!
#734147875
1!
#734161000
0!
#734174125
1!
#734187250
0!
#734200375
1!
#734213500
0!
#734226625
1!
#734239750
0!
#734252875
1!
#734266000
0!
#734279125
1!
#734292250
0!
#734305375
1!
#734318500
0!
#734331625
1!
#734344750
0!
#734357875
1!
#734371000
0!
#734384125
1!
#734397250
0!
#734410375
1!
#734423500
0!
#734436625
1!
#734449750
0!
#734462875
1!
#734476000
0!
#734489125
1!
#734502250
0!
#734515375
1!
#734528500
0!
#734541625
1!
#734554750
0!
#734567875
1!
#734581000
0!
#734594125
1!
#734607250
0!
#736313500
1!
#736326625
0!
#736339750
1!
#736352875
0!
#736366000
1!
#736379125
0!
#736392250
1!
#736405375
0!
#736418500
1!
#736431625
0!
#736444750
1!
#736457875
0!
#736471000
1!
#736484125
0!
#736497250
1!
#736510375
0!
#736523500
1!
#736536625
0!
#736549750
1!
#736562875
0!
#736576000
1!
#736589125
0!
#736602250
1!
#736615375
0!
#736628500
1!
#736641625
0!
#736654750
1!
#736667875
0!
#736681000
1!
#736694125
0!
#736707250
1!
#736720375
0!
#736733500
1!
#736746625
0!
#736759750
1!
#736772875
0!
#736786000
1!
#736799125
0!
#736812250
1!
#736825375
0!
#736838500
1!
#736851625
0!
#736864750
1!
#736866812
0!
#738571000
1!
#738584125
0!
#738597250
1!
#738610375
0!
#738623500
1!
#738636625
0!
#738649750
1!
#738662875
0!
#738676000
1!
#738689125
0!
#738702250
1!
#738715375
0!
#738728500
1!
#738741625
0!
#738754750
1!
#738767875
0!
#738781000
1!
#738794125
0!
#738807250
1!
#738820375
0!
#738833500
1!
#738846625
0!
#738859750
1!
#738872875
0!
#738886000
1!
#738899125
0!
#738912250
1!
#738925375
0!
#738938500
1!
#738951625
0!
#738964750
1!
#738977875
0!
#738991000
1!
#739004125
0!
#739017250
1!
#739030375
0!
#739043500
1!
#739056625
0!
#739069750
1!
#739082875
0!
#739096000
1!
#739109125
0!
#739686625
1!
#739699750
0!
#739712875
1!
#739726000
0!
#739739125
1!
#739752250
0!
#739765375
1!
#739778500
0!
#739791625
1!
#739804750
0!
#739817875
1!
#739831000
0!
#739844125
1!
#739857250
0!
#739870375
1!
#739883500
0!
#739896625
1!
#739909750
0!
#739922875
1!
#739936000
0!
#739949125
1!
#739962250
0!
#739975375
1!
#739988500
0!
#740001625
1!
#740014750
0!
#740027875
1!
#740041000
0!
#740054125
1!
#740067250
0!
#740080375
1!
#740093500
0!
#740106625
1!
#740119750
0!
#740132875
1!
#740146000
0!
#740159125
1!
#740172250
0!
#740185375
1!
#740198500
0!
#740211625
1!
#740224750
0!
#740237875
1!
#740241812
0!
#740815375
1!
#740828500
0!
#740841625
1!
#740854750
0!
#740867875
1!
#740881000
0!
#740894125
1!
#740907250
0!
#740920375
1!
#740933500
0!
#740946625
1!
#740959750
0!
#740972875
1!
#740986000
0!
#740999125
1!
#741012250
0!
#741025375
1!
#741038500
0!
#741051625
1!
#741064750
0!
#741077875
1!
#741091000
0!
#741104125
1!
#741117250
0!
#741130375
1!
#741143500
0!
#741156625
1!
#741169750
0!
#741182875
1!
#741196000
0!
#741209125
1!
#741222250
0!
#741235375
1!
#741248500
0!
#741261625
1!
#741274750
0!
#741287875
1!
#741301000
0!
#741314125
1!
#741327250
0!
#741340375
1!
#741353500
0!
#741366625
1!
#741366812
0!
#743059750
1!
#743072875
0!
#743086000
1!
#743099125
0!
#743112250
1!
#743125375
0!
#743138500
1!
#743151625
0!
#743164750
1!
#743177875
0!
#743191000
1!
#743204125
0!
#743217250
1!
#743230375
0!
#743243500
1!
#743256625
0!
#743269750
1!
#743282875
0!
#743296000
1!
#743309125
0!
#743322250
1!
#743335375
0!
#743348500
1!
#743361625
0!
#743374750
1!
#743387875
0!
#743401000
1!
#743414125
0!
#743427250
1!
#743440375
0!
#743453500
1!
#743466625
0!
#743479750
1!
#743492875
0!
#743506000
1!
#743519125
0!
#743532250
1!
#743545375
0!
#743558500
1!
#743571625
0!
#743584750
1!
#743597875
0!
#743611000
1!
#743616750
0!
#745317250
1!
#745330375
0!
#745343500
1!
#745356625
0!
#745369750
1!
#745382875
0!
#745396000
1!
#745409125
0!
#745422250
1!
#745435375
0!
#745448500
1!
#745461625
0!
#745474750
1!
#745487875
0!
#745501000
1!
#745514125
0!
#745527250
1!
#745540375
0!
#745553500
1!
#745566625
0!
#745579750
1!
#745592875
0!
#745606000
1!
#745619125
0!
#745632250
1!
#745645375
0!
#745658500
1!
#745671625
0!
#745684750
1!
#745697875
0!
#745711000
1!
#745724125
0!
#745737250
1!
#745750375
0!
#745763500
1!
#745776625
0!
#745789750
1!
#745802875
0!
#745816000
1!
#745829125
0!
#745842250
1!
#745855375
0!
#747561625
1!
#747574750
0!
#747587875
1!
#747601000
0!
#747614125
1!
#747627250
0!
#747640375
1!
#747653500
0!
#747666625
1!
#747679750
0!
#747692875
1!
#747706000
0!
